   1              		.cpu cortex-m0plus
   2              		.fpu softvfp
   3              		.eabi_attribute 20, 1
   4              		.eabi_attribute 21, 1
   5              		.eabi_attribute 23, 3
   6              		.eabi_attribute 24, 1
   7              		.eabi_attribute 25, 1
   8              		.eabi_attribute 26, 1
   9              		.eabi_attribute 30, 6
  10              		.eabi_attribute 34, 0
  11              		.eabi_attribute 18, 4
  12              		.code	16
  13              		.file	"main.c"
  14              		.text
  15              	.Ltext0:
  16              		.cfi_sections	.debug_frame
  17              		.section	.bss.i,"aw",%nobits
  18              		.align	2
  21              	i:
  22 0000 00000000 		.space	4
  23              		.section	.text.main,"ax",%progbits
  24              		.align	2
  25              		.global	main
  26              		.code	16
  27              		.thumb_func
  29              	main:
  30              	.LFB33:
  31              		.file 1 "../Sources/main.c"
   1:../Sources/main.c **** /*
   2:../Sources/main.c ****  * Copyright (c) 2015, Freescale Semiconductor, Inc.
   3:../Sources/main.c ****  * All rights reserved.
   4:../Sources/main.c ****  *
   5:../Sources/main.c ****  * Redistribution and use in source and binary forms, with or without modification,
   6:../Sources/main.c ****  * are permitted provided that the following conditions are met:
   7:../Sources/main.c ****  *
   8:../Sources/main.c ****  * o Redistributions of source code must retain the above copyright notice, this list
   9:../Sources/main.c ****  *   of conditions and the following disclaimer.
  10:../Sources/main.c ****  *
  11:../Sources/main.c ****  * o Redistributions in binary form must reproduce the above copyright notice, this
  12:../Sources/main.c ****  *   list of conditions and the following disclaimer in the documentation and/or
  13:../Sources/main.c ****  *   other materials provided with the distribution.
  14:../Sources/main.c ****  *
  15:../Sources/main.c ****  * o Neither the name of Freescale Semiconductor, Inc. nor the names of its
  16:../Sources/main.c ****  *   contributors may be used to endorse or promote products derived from this
  17:../Sources/main.c ****  *   software without specific prior written permission.
  18:../Sources/main.c ****  *
  19:../Sources/main.c ****  * THIS SOFTWARE IS PROVIDED BY THE COPYRIGHT HOLDERS AND CONTRIBUTORS "AS IS" AND
  20:../Sources/main.c ****  * ANY EXPRESS OR IMPLIED WARRANTIES, INCLUDING, BUT NOT LIMITED TO, THE IMPLIED
  21:../Sources/main.c ****  * WARRANTIES OF MERCHANTABILITY AND FITNESS FOR A PARTICULAR PURPOSE ARE
  22:../Sources/main.c ****  * DISCLAIMED. IN NO EVENT SHALL THE COPYRIGHT HOLDER OR CONTRIBUTORS BE LIABLE FOR
  23:../Sources/main.c ****  * ANY DIRECT, INDIRECT, INCIDENTAL, SPECIAL, EXEMPLARY, OR CONSEQUENTIAL DAMAGES
  24:../Sources/main.c ****  * (INCLUDING, BUT NOT LIMITED TO, PROCUREMENT OF SUBSTITUTE GOODS OR SERVICES;
  25:../Sources/main.c ****  * LOSS OF USE, DATA, OR PROFITS; OR BUSINESS INTERRUPTION) HOWEVER CAUSED AND ON
  26:../Sources/main.c ****  * ANY THEORY OF LIABILITY, WHETHER IN CONTRACT, STRICT LIABILITY, OR TORT
  27:../Sources/main.c ****  * (INCLUDING NEGLIGENCE OR OTHERWISE) ARISING IN ANY WAY OUT OF THE USE OF THIS
  28:../Sources/main.c ****  * SOFTWARE, EVEN IF ADVISED OF THE POSSIBILITY OF SUCH DAMAGE.
  29:../Sources/main.c ****  */
  30:../Sources/main.c **** 
  31:../Sources/main.c **** #include "fsl_device_registers.h"
  32:../Sources/main.c **** 
  33:../Sources/main.c **** static int i = 0;
  34:../Sources/main.c **** 
  35:../Sources/main.c **** int main(void)
  36:../Sources/main.c **** {
  32              		.loc 1 36 0
  33              		.cfi_startproc
  34 0000 80B5     		push	{r7, lr}
  35              		.cfi_def_cfa_offset 8
  36              		.cfi_offset 7, -8
  37              		.cfi_offset 14, -4
  38 0002 00AF     		add	r7, sp, #0
  39              		.cfi_def_cfa_register 7
  37:../Sources/main.c **** 
  38:../Sources/main.c ****     /* Write your code here */
  39:../Sources/main.c **** 
  40:../Sources/main.c ****     /* This for loop should be replaced. By default this loop allows a single stepping. */
  41:../Sources/main.c ****     hardware_init();
  40              		.loc 1 41 0
  41 0004 FFF7FEFF 		bl	hardware_init
  42              	.L2:
  42:../Sources/main.c ****     /* Never leave main */
  43:../Sources/main.c ****     while(1);
  43              		.loc 1 43 0 discriminator 1
  44 0008 FEE7     		b	.L2
  45              		.cfi_endproc
  46              	.LFE33:
  48              		.text
  49              	.Letext0:
DEFINED SYMBOLS
                            *ABS*:00000000 main.c
C:\Users\Marcos\AppData\Local\Temp\cc6AU3ij.s:18     .bss.i:00000000 $d
C:\Users\Marcos\AppData\Local\Temp\cc6AU3ij.s:21     .bss.i:00000000 i
C:\Users\Marcos\AppData\Local\Temp\cc6AU3ij.s:24     .text.main:00000000 $t
C:\Users\Marcos\AppData\Local\Temp\cc6AU3ij.s:29     .text.main:00000000 main
                     .debug_frame:00000010 $d
                           .group:00000000 wm4.0.4fc5d43945da5e93c3e97df46ba359a3
                           .group:00000000 wm4.fsl_device_registers.h.48.205896530bddaf9f9434a0cf859f27ad
                           .group:00000000 wm4.MKL25Z4.h.102.677bea853bc8cd30d022809597055479
                           .group:00000000 wm4.features.h.22.6a4ca7cd053637cc1d0db6c16f39b2d7
                           .group:00000000 wm4._default_types.h.15.8b2cb27e528498f8ff711db085d6e489
                           .group:00000000 wm4.stdint.h.20.796e373797e732130a803d4c0338fa1b
                           .group:00000000 wm4.MKL25Z4.h.115.225e141cc79b07c4f41c01e2aad8bacf
                           .group:00000000 wm4.core_cm0plus.h.43.8d0a7c3b62d57d3de08e0cf260e796f5
                           .group:00000000 wm4.core_cmInstr.h.39.44064da3259031fd67bf776bc901489f
                           .group:00000000 wm4.core_cm0plus.h.160.93109123d7400be81e9e38af2ec243d9
                           .group:00000000 wm4.system_MKL25Z4.h.100.c681798c181a50448d403503ea0d6dd3
                           .group:00000000 wm4.MKL25Z4.h.284.1401abca5d90bb44a7a363ddee2e0514
                           .group:00000000 wm4.newlib.h.8.fec018e441fee7bfa1923812ad010f97
                           .group:00000000 wm4.config.h.212.4163ef2871a828c674038d036b081cfd
                           .group:00000000 wm4._ansi.h.23.2147fde150631f5584b9dc29b914d1b8
                           .group:00000000 wm4.stdlib.h.13.4ed386f5c1a80d71e72172885d946ef2
                           .group:00000000 wm4.stddef.h.184.aa65fb7281d578229bbad41b91862635
                           .group:00000000 wm4.stddef.h.39.d0197034aa5fd947cae140b9289e6734
                           .group:00000000 wm4.lock.h.2.9bc98482741e5e2a9450b12934a684ea
                           .group:00000000 wm4._types.h.54.d3d34a3b7f3cc230cd159baf022b4b08
                           .group:00000000 wm4.stddef.h.158.61317cdbfb4026324507d123a50b0fd6
                           .group:00000000 wm4.reent.h.17.8bd9e4098e0428508c282cad794fae43
                           .group:00000000 wm4.alloca.h.8.dfc0c703c47ec3e69746825b17d9e66d
                           .group:00000000 wm4.stdlib.h.53.1a82a3cc35cb0a04319c41bcf41d2a02
                           .group:00000000 wm4.fsl_bitaccess.h.78.9caeef803fd992899b964c3693d1446e
                           .group:00000000 wm4.MKL25Z4_extension.h.123.8a6ecbe1f4aa9c3878ea5751dada233d
                           .group:00000000 wm4.MKL25Z4_features.h.77.f6e11aac8501a33d352798d42afc2cd7

UNDEFINED SYMBOLS
hardware_init
