   1              		.cpu cortex-m0plus
   2              		.fpu softvfp
   3              		.eabi_attribute 20, 1
   4              		.eabi_attribute 21, 1
   5              		.eabi_attribute 23, 3
   6              		.eabi_attribute 24, 1
   7              		.eabi_attribute 25, 1
   8              		.eabi_attribute 26, 1
   9              		.eabi_attribute 30, 6
  10              		.eabi_attribute 34, 0
  11              		.eabi_attribute 18, 4
  12              		.code	16
  13              		.file	"cubic.c"
  14              		.text
  15              	.Ltext0:
  16              		.cfi_sections	.debug_frame
  17              		.global	__aeabi_ddiv
  18              		.global	__aeabi_dmul
  19              		.global	__aeabi_dsub
  20              		.global	__aeabi_dadd
  21              		.global	__aeabi_dcmple
  22              		.global	__aeabi_dcmplt
  23              		.section	.text.SolveCubic,"ax",%progbits
  24              		.align	2
  25              		.global	SolveCubic
  26              		.code	16
  27              		.thumb_func
  29              	SolveCubic:
  30              	.LFB0:
  31              		.file 1 "../Sources/cubic.c"
   1:../Sources/cubic.c **** /* +++Date last modified: 05-Jul-1997 */
   2:../Sources/cubic.c **** 
   3:../Sources/cubic.c **** /*
   4:../Sources/cubic.c **** **  CUBIC.C - Solve a cubic polynomial
   5:../Sources/cubic.c **** **  public domain by Ross Cottrell
   6:../Sources/cubic.c **** */
   7:../Sources/cubic.c **** 
   8:../Sources/cubic.c **** #include <math.h>
   9:../Sources/cubic.c **** #include <stdlib.h>
  10:../Sources/cubic.c **** #include "snipmath.h"
  11:../Sources/cubic.c **** 
  12:../Sources/cubic.c **** void SolveCubic(double  a,
  13:../Sources/cubic.c ****                 double  b,
  14:../Sources/cubic.c ****                 double  c,
  15:../Sources/cubic.c ****                 double  d,
  16:../Sources/cubic.c ****                 int    *solutions,
  17:../Sources/cubic.c ****                 double *x)
  18:../Sources/cubic.c **** {
  32              		.loc 1 18 0
  33              		.cfi_startproc
  34 0000 F0B5     		push	{r4, r5, r6, r7, lr}
  35              		.cfi_def_cfa_offset 20
  36              		.cfi_offset 4, -20
  37              		.cfi_offset 5, -16
  38              		.cfi_offset 6, -12
  39              		.cfi_offset 7, -8
  40              		.cfi_offset 14, -4
  41 0002 4746     		mov	r7, r8
  42 0004 80B4     		push	{r7}
  43              		.cfi_def_cfa_offset 24
  44              		.cfi_offset 8, -24
  45 0006 9AB0     		sub	sp, sp, #104
  46              		.cfi_def_cfa_offset 128
  47 0008 00AF     		add	r7, sp, #0
  48              		.cfi_def_cfa_register 7
  49 000a B862     		str	r0, [r7, #40]
  50 000c F962     		str	r1, [r7, #44]
  51 000e 3A62     		str	r2, [r7, #32]
  52 0010 7B62     		str	r3, [r7, #36]
  19:../Sources/cubic.c ****       long double    a1 = b/a, a2 = c/a, a3 = d/a;
  53              		.loc 1 19 0
  54 0012 386A     		ldr	r0, [r7, #32]
  55 0014 796A     		ldr	r1, [r7, #36]
  56 0016 BA6A     		ldr	r2, [r7, #40]
  57 0018 FB6A     		ldr	r3, [r7, #44]
  58 001a FFF7FEFF 		bl	__aeabi_ddiv
  59 001e 031C     		mov	r3, r0
  60 0020 0C1C     		mov	r4, r1
  61 0022 3B66     		str	r3, [r7, #96]
  62 0024 7C66     		str	r4, [r7, #100]
  63 0026 8022     		mov	r2, #128
  64 0028 D219     		add	r2, r2, r7
  65 002a 1068     		ldr	r0, [r2]
  66 002c 5168     		ldr	r1, [r2, #4]
  67 002e BA6A     		ldr	r2, [r7, #40]
  68 0030 FB6A     		ldr	r3, [r7, #44]
  69 0032 FFF7FEFF 		bl	__aeabi_ddiv
  70 0036 031C     		mov	r3, r0
  71 0038 0C1C     		mov	r4, r1
  72 003a BB65     		str	r3, [r7, #88]
  73 003c FC65     		str	r4, [r7, #92]
  74 003e 8823     		mov	r3, #136
  75 0040 DB19     		add	r3, r3, r7
  76 0042 1868     		ldr	r0, [r3]
  77 0044 5968     		ldr	r1, [r3, #4]
  78 0046 BA6A     		ldr	r2, [r7, #40]
  79 0048 FB6A     		ldr	r3, [r7, #44]
  80 004a FFF7FEFF 		bl	__aeabi_ddiv
  81 004e 031C     		mov	r3, r0
  82 0050 0C1C     		mov	r4, r1
  83 0052 3B65     		str	r3, [r7, #80]
  84 0054 7C65     		str	r4, [r7, #84]
  20:../Sources/cubic.c ****       long double    Q = (a1*a1 - 3.0*a2)/9.0;
  85              		.loc 1 20 0
  86 0056 386E     		ldr	r0, [r7, #96]
  87 0058 796E     		ldr	r1, [r7, #100]
  88 005a 3A6E     		ldr	r2, [r7, #96]
  89 005c 7B6E     		ldr	r3, [r7, #100]
  90 005e FFF7FEFF 		bl	__aeabi_dmul
  91 0062 031C     		mov	r3, r0
  92 0064 0C1C     		mov	r4, r1
  93 0066 BB61     		str	r3, [r7, #24]
  94 0068 FC61     		str	r4, [r7, #28]
  95 006a B86D     		ldr	r0, [r7, #88]
  96 006c F96D     		ldr	r1, [r7, #92]
  97 006e CD4B     		ldr	r3, .L12+4
  98 0070 CB4A     		ldr	r2, .L12
  99 0072 FFF7FEFF 		bl	__aeabi_dmul
 100 0076 031C     		mov	r3, r0
 101 0078 0C1C     		mov	r4, r1
 102 007a B869     		ldr	r0, [r7, #24]
 103 007c F969     		ldr	r1, [r7, #28]
 104 007e 1A1C     		mov	r2, r3
 105 0080 231C     		mov	r3, r4
 106 0082 FFF7FEFF 		bl	__aeabi_dsub
 107 0086 031C     		mov	r3, r0
 108 0088 0C1C     		mov	r4, r1
 109 008a 181C     		mov	r0, r3
 110 008c 211C     		mov	r1, r4
 111 008e C64A     		ldr	r2, .L12+8
 112 0090 C64B     		ldr	r3, .L12+12
 113 0092 FFF7FEFF 		bl	__aeabi_ddiv
 114 0096 031C     		mov	r3, r0
 115 0098 0C1C     		mov	r4, r1
 116 009a BB64     		str	r3, [r7, #72]
 117 009c FC64     		str	r4, [r7, #76]
  21:../Sources/cubic.c ****       long double R = (2.0*a1*a1*a1 - 9.0*a1*a2 + 27.0*a3)/54.0;
 118              		.loc 1 21 0
 119 009e 3B6E     		ldr	r3, [r7, #96]
 120 00a0 7C6E     		ldr	r4, [r7, #100]
 121 00a2 181C     		mov	r0, r3
 122 00a4 211C     		mov	r1, r4
 123 00a6 1A1C     		mov	r2, r3
 124 00a8 231C     		mov	r3, r4
 125 00aa FFF7FEFF 		bl	__aeabi_dadd
 126 00ae 031C     		mov	r3, r0
 127 00b0 0C1C     		mov	r4, r1
 128 00b2 181C     		mov	r0, r3
 129 00b4 211C     		mov	r1, r4
 130 00b6 3A6E     		ldr	r2, [r7, #96]
 131 00b8 7B6E     		ldr	r3, [r7, #100]
 132 00ba FFF7FEFF 		bl	__aeabi_dmul
 133 00be 031C     		mov	r3, r0
 134 00c0 0C1C     		mov	r4, r1
 135 00c2 181C     		mov	r0, r3
 136 00c4 211C     		mov	r1, r4
 137 00c6 3A6E     		ldr	r2, [r7, #96]
 138 00c8 7B6E     		ldr	r3, [r7, #100]
 139 00ca FFF7FEFF 		bl	__aeabi_dmul
 140 00ce 031C     		mov	r3, r0
 141 00d0 0C1C     		mov	r4, r1
 142 00d2 3B61     		str	r3, [r7, #16]
 143 00d4 7C61     		str	r4, [r7, #20]
 144 00d6 386E     		ldr	r0, [r7, #96]
 145 00d8 796E     		ldr	r1, [r7, #100]
 146 00da B34A     		ldr	r2, .L12+8
 147 00dc B34B     		ldr	r3, .L12+12
 148 00de FFF7FEFF 		bl	__aeabi_dmul
 149 00e2 031C     		mov	r3, r0
 150 00e4 0C1C     		mov	r4, r1
 151 00e6 181C     		mov	r0, r3
 152 00e8 211C     		mov	r1, r4
 153 00ea BA6D     		ldr	r2, [r7, #88]
 154 00ec FB6D     		ldr	r3, [r7, #92]
 155 00ee FFF7FEFF 		bl	__aeabi_dmul
 156 00f2 031C     		mov	r3, r0
 157 00f4 0C1C     		mov	r4, r1
 158 00f6 3869     		ldr	r0, [r7, #16]
 159 00f8 7969     		ldr	r1, [r7, #20]
 160 00fa 1A1C     		mov	r2, r3
 161 00fc 231C     		mov	r3, r4
 162 00fe FFF7FEFF 		bl	__aeabi_dsub
 163 0102 031C     		mov	r3, r0
 164 0104 0C1C     		mov	r4, r1
 165 0106 BB60     		str	r3, [r7, #8]
 166 0108 FC60     		str	r4, [r7, #12]
 167 010a 386D     		ldr	r0, [r7, #80]
 168 010c 796D     		ldr	r1, [r7, #84]
 169 010e A84A     		ldr	r2, .L12+16
 170 0110 A84B     		ldr	r3, .L12+20
 171 0112 FFF7FEFF 		bl	__aeabi_dmul
 172 0116 031C     		mov	r3, r0
 173 0118 0C1C     		mov	r4, r1
 174 011a B868     		ldr	r0, [r7, #8]
 175 011c F968     		ldr	r1, [r7, #12]
 176 011e 1A1C     		mov	r2, r3
 177 0120 231C     		mov	r3, r4
 178 0122 FFF7FEFF 		bl	__aeabi_dadd
 179 0126 031C     		mov	r3, r0
 180 0128 0C1C     		mov	r4, r1
 181 012a 181C     		mov	r0, r3
 182 012c 211C     		mov	r1, r4
 183 012e A24A     		ldr	r2, .L12+24
 184 0130 A24B     		ldr	r3, .L12+28
 185 0132 FFF7FEFF 		bl	__aeabi_ddiv
 186 0136 031C     		mov	r3, r0
 187 0138 0C1C     		mov	r4, r1
 188 013a 3B64     		str	r3, [r7, #64]
 189 013c 7C64     		str	r4, [r7, #68]
  22:../Sources/cubic.c ****       double    R2_Q3 = R*R - Q*Q*Q;
 190              		.loc 1 22 0
 191 013e 386C     		ldr	r0, [r7, #64]
 192 0140 796C     		ldr	r1, [r7, #68]
 193 0142 3A6C     		ldr	r2, [r7, #64]
 194 0144 7B6C     		ldr	r3, [r7, #68]
 195 0146 FFF7FEFF 		bl	__aeabi_dmul
 196 014a 031C     		mov	r3, r0
 197 014c 0C1C     		mov	r4, r1
 198 014e 3B60     		str	r3, [r7]
 199 0150 7C60     		str	r4, [r7, #4]
 200 0152 B86C     		ldr	r0, [r7, #72]
 201 0154 F96C     		ldr	r1, [r7, #76]
 202 0156 BA6C     		ldr	r2, [r7, #72]
 203 0158 FB6C     		ldr	r3, [r7, #76]
 204 015a FFF7FEFF 		bl	__aeabi_dmul
 205 015e 031C     		mov	r3, r0
 206 0160 0C1C     		mov	r4, r1
 207 0162 181C     		mov	r0, r3
 208 0164 211C     		mov	r1, r4
 209 0166 BA6C     		ldr	r2, [r7, #72]
 210 0168 FB6C     		ldr	r3, [r7, #76]
 211 016a FFF7FEFF 		bl	__aeabi_dmul
 212 016e 031C     		mov	r3, r0
 213 0170 0C1C     		mov	r4, r1
 214 0172 3868     		ldr	r0, [r7]
 215 0174 7968     		ldr	r1, [r7, #4]
 216 0176 1A1C     		mov	r2, r3
 217 0178 231C     		mov	r3, r4
 218 017a FFF7FEFF 		bl	__aeabi_dsub
 219 017e 031C     		mov	r3, r0
 220 0180 0C1C     		mov	r4, r1
 221 0182 BB63     		str	r3, [r7, #56]
 222 0184 FC63     		str	r4, [r7, #60]
  23:../Sources/cubic.c **** 
  24:../Sources/cubic.c ****       double    theta;
  25:../Sources/cubic.c **** 
  26:../Sources/cubic.c ****       if (R2_Q3 <= 0)
 223              		.loc 1 26 0
 224 0186 B86B     		ldr	r0, [r7, #56]
 225 0188 F96B     		ldr	r1, [r7, #60]
 226 018a 8D4A     		ldr	r2, .L12+32
 227 018c 8D4B     		ldr	r3, .L12+36
 228 018e FFF7FEFF 		bl	__aeabi_dcmple
 229 0192 031C     		mov	r3, r0
 230 0194 002B     		cmp	r3, #0
 231 0196 00D1     		bne	.LCB153
 232 0198 22E1     		b	.L10	@long jump
 233              	.LCB153:
  27:../Sources/cubic.c ****       {
  28:../Sources/cubic.c ****             *solutions = 3;
 234              		.loc 1 28 0
 235 019a 9021     		mov	r1, #144
 236 019c C919     		add	r1, r1, r7
 237 019e 0B68     		ldr	r3, [r1]
 238 01a0 0322     		mov	r2, #3
 239 01a2 1A60     		str	r2, [r3]
  29:../Sources/cubic.c ****             theta = acos(R/sqrt(Q*Q*Q));
 240              		.loc 1 29 0
 241 01a4 B86C     		ldr	r0, [r7, #72]
 242 01a6 F96C     		ldr	r1, [r7, #76]
 243 01a8 BA6C     		ldr	r2, [r7, #72]
 244 01aa FB6C     		ldr	r3, [r7, #76]
 245 01ac FFF7FEFF 		bl	__aeabi_dmul
 246 01b0 031C     		mov	r3, r0
 247 01b2 0C1C     		mov	r4, r1
 248 01b4 181C     		mov	r0, r3
 249 01b6 211C     		mov	r1, r4
 250 01b8 BA6C     		ldr	r2, [r7, #72]
 251 01ba FB6C     		ldr	r3, [r7, #76]
 252 01bc FFF7FEFF 		bl	__aeabi_dmul
 253 01c0 031C     		mov	r3, r0
 254 01c2 0C1C     		mov	r4, r1
 255 01c4 181C     		mov	r0, r3
 256 01c6 211C     		mov	r1, r4
 257 01c8 FFF7FEFF 		bl	sqrt
 258 01cc 031C     		mov	r3, r0
 259 01ce 0C1C     		mov	r4, r1
 260 01d0 386C     		ldr	r0, [r7, #64]
 261 01d2 796C     		ldr	r1, [r7, #68]
 262 01d4 1A1C     		mov	r2, r3
 263 01d6 231C     		mov	r3, r4
 264 01d8 FFF7FEFF 		bl	__aeabi_ddiv
 265 01dc 031C     		mov	r3, r0
 266 01de 0C1C     		mov	r4, r1
 267 01e0 181C     		mov	r0, r3
 268 01e2 211C     		mov	r1, r4
 269 01e4 FFF7FEFF 		bl	acos
 270 01e8 031C     		mov	r3, r0
 271 01ea 0C1C     		mov	r4, r1
 272 01ec 3B63     		str	r3, [r7, #48]
 273 01ee 7C63     		str	r4, [r7, #52]
  30:../Sources/cubic.c ****             x[0] = -2.0*sqrt(Q)*cos(theta/3.0) - a1/3.0;
 274              		.loc 1 30 0
 275 01f0 BB6C     		ldr	r3, [r7, #72]
 276 01f2 FC6C     		ldr	r4, [r7, #76]
 277 01f4 181C     		mov	r0, r3
 278 01f6 211C     		mov	r1, r4
 279 01f8 FFF7FEFF 		bl	sqrt
 280 01fc 031C     		mov	r3, r0
 281 01fe 0C1C     		mov	r4, r1
 282 0200 181C     		mov	r0, r3
 283 0202 211C     		mov	r1, r4
 284 0204 704A     		ldr	r2, .L12+40
 285 0206 714B     		ldr	r3, .L12+44
 286 0208 FFF7FEFF 		bl	__aeabi_dmul
 287 020c 031C     		mov	r3, r0
 288 020e 0C1C     		mov	r4, r1
 289 0210 1D1C     		mov	r5, r3
 290 0212 261C     		mov	r6, r4
 291 0214 386B     		ldr	r0, [r7, #48]
 292 0216 796B     		ldr	r1, [r7, #52]
 293 0218 624B     		ldr	r3, .L12+4
 294 021a 614A     		ldr	r2, .L12
 295 021c FFF7FEFF 		bl	__aeabi_ddiv
 296 0220 031C     		mov	r3, r0
 297 0222 0C1C     		mov	r4, r1
 298 0224 181C     		mov	r0, r3
 299 0226 211C     		mov	r1, r4
 300 0228 FFF7FEFF 		bl	cos
 301 022c 031C     		mov	r3, r0
 302 022e 0C1C     		mov	r4, r1
 303 0230 281C     		mov	r0, r5
 304 0232 311C     		mov	r1, r6
 305 0234 1A1C     		mov	r2, r3
 306 0236 231C     		mov	r3, r4
 307 0238 FFF7FEFF 		bl	__aeabi_dmul
 308 023c 031C     		mov	r3, r0
 309 023e 0C1C     		mov	r4, r1
 310 0240 1D1C     		mov	r5, r3
 311 0242 261C     		mov	r6, r4
 312 0244 386E     		ldr	r0, [r7, #96]
 313 0246 796E     		ldr	r1, [r7, #100]
 314 0248 564B     		ldr	r3, .L12+4
 315 024a 554A     		ldr	r2, .L12
 316 024c FFF7FEFF 		bl	__aeabi_ddiv
 317 0250 031C     		mov	r3, r0
 318 0252 0C1C     		mov	r4, r1
 319 0254 281C     		mov	r0, r5
 320 0256 311C     		mov	r1, r6
 321 0258 1A1C     		mov	r2, r3
 322 025a 231C     		mov	r3, r4
 323 025c FFF7FEFF 		bl	__aeabi_dsub
 324 0260 031C     		mov	r3, r0
 325 0262 0C1C     		mov	r4, r1
 326 0264 9421     		mov	r1, #148
 327 0266 C919     		add	r1, r1, r7
 328 0268 0A68     		ldr	r2, [r1]
 329 026a 1360     		str	r3, [r2]
 330 026c 5460     		str	r4, [r2, #4]
  31:../Sources/cubic.c ****             x[1] = -2.0*sqrt(Q)*cos((theta+2.0*PI)/3.0) - a1/3.0;
 331              		.loc 1 31 0
 332 026e 9422     		mov	r2, #148
 333 0270 D219     		add	r2, r2, r7
 334 0272 1368     		ldr	r3, [r2]
 335 0274 0821     		mov	r1, #8
 336 0276 C918     		add	r1, r1, r3
 337 0278 8846     		mov	r8, r1
 338 027a BB6C     		ldr	r3, [r7, #72]
 339 027c FC6C     		ldr	r4, [r7, #76]
 340 027e 181C     		mov	r0, r3
 341 0280 211C     		mov	r1, r4
 342 0282 FFF7FEFF 		bl	sqrt
 343 0286 031C     		mov	r3, r0
 344 0288 0C1C     		mov	r4, r1
 345 028a 181C     		mov	r0, r3
 346 028c 211C     		mov	r1, r4
 347 028e 4E4A     		ldr	r2, .L12+40
 348 0290 4E4B     		ldr	r3, .L12+44
 349 0292 FFF7FEFF 		bl	__aeabi_dmul
 350 0296 031C     		mov	r3, r0
 351 0298 0C1C     		mov	r4, r1
 352 029a 1D1C     		mov	r5, r3
 353 029c 261C     		mov	r6, r4
 354 029e 386B     		ldr	r0, [r7, #48]
 355 02a0 796B     		ldr	r1, [r7, #52]
 356 02a2 4B4A     		ldr	r2, .L12+48
 357 02a4 4B4B     		ldr	r3, .L12+52
 358 02a6 FFF7FEFF 		bl	__aeabi_dadd
 359 02aa 031C     		mov	r3, r0
 360 02ac 0C1C     		mov	r4, r1
 361 02ae 181C     		mov	r0, r3
 362 02b0 211C     		mov	r1, r4
 363 02b2 3C4B     		ldr	r3, .L12+4
 364 02b4 3A4A     		ldr	r2, .L12
 365 02b6 FFF7FEFF 		bl	__aeabi_ddiv
 366 02ba 031C     		mov	r3, r0
 367 02bc 0C1C     		mov	r4, r1
 368 02be 181C     		mov	r0, r3
 369 02c0 211C     		mov	r1, r4
 370 02c2 FFF7FEFF 		bl	cos
 371 02c6 031C     		mov	r3, r0
 372 02c8 0C1C     		mov	r4, r1
 373 02ca 281C     		mov	r0, r5
 374 02cc 311C     		mov	r1, r6
 375 02ce 1A1C     		mov	r2, r3
 376 02d0 231C     		mov	r3, r4
 377 02d2 FFF7FEFF 		bl	__aeabi_dmul
 378 02d6 031C     		mov	r3, r0
 379 02d8 0C1C     		mov	r4, r1
 380 02da 1D1C     		mov	r5, r3
 381 02dc 261C     		mov	r6, r4
 382 02de 386E     		ldr	r0, [r7, #96]
 383 02e0 796E     		ldr	r1, [r7, #100]
 384 02e2 304B     		ldr	r3, .L12+4
 385 02e4 2E4A     		ldr	r2, .L12
 386 02e6 FFF7FEFF 		bl	__aeabi_ddiv
 387 02ea 031C     		mov	r3, r0
 388 02ec 0C1C     		mov	r4, r1
 389 02ee 281C     		mov	r0, r5
 390 02f0 311C     		mov	r1, r6
 391 02f2 1A1C     		mov	r2, r3
 392 02f4 231C     		mov	r3, r4
 393 02f6 FFF7FEFF 		bl	__aeabi_dsub
 394 02fa 031C     		mov	r3, r0
 395 02fc 0C1C     		mov	r4, r1
 396 02fe 4246     		mov	r2, r8
 397 0300 1360     		str	r3, [r2]
 398 0302 5460     		str	r4, [r2, #4]
  32:../Sources/cubic.c ****             x[2] = -2.0*sqrt(Q)*cos((theta+4.0*PI)/3.0) - a1/3.0;
 399              		.loc 1 32 0
 400 0304 9421     		mov	r1, #148
 401 0306 C919     		add	r1, r1, r7
 402 0308 0B68     		ldr	r3, [r1]
 403 030a 1022     		mov	r2, #16
 404 030c D218     		add	r2, r2, r3
 405 030e 9046     		mov	r8, r2
 406 0310 BB6C     		ldr	r3, [r7, #72]
 407 0312 FC6C     		ldr	r4, [r7, #76]
 408 0314 181C     		mov	r0, r3
 409 0316 211C     		mov	r1, r4
 410 0318 FFF7FEFF 		bl	sqrt
 411 031c 031C     		mov	r3, r0
 412 031e 0C1C     		mov	r4, r1
 413 0320 181C     		mov	r0, r3
 414 0322 211C     		mov	r1, r4
 415 0324 284A     		ldr	r2, .L12+40
 416 0326 294B     		ldr	r3, .L12+44
 417 0328 FFF7FEFF 		bl	__aeabi_dmul
 418 032c 031C     		mov	r3, r0
 419 032e 0C1C     		mov	r4, r1
 420 0330 1D1C     		mov	r5, r3
 421 0332 261C     		mov	r6, r4
 422 0334 386B     		ldr	r0, [r7, #48]
 423 0336 796B     		ldr	r1, [r7, #52]
 424 0338 274A     		ldr	r2, .L12+56
 425 033a 284B     		ldr	r3, .L12+60
 426 033c FFF7FEFF 		bl	__aeabi_dadd
 427 0340 031C     		mov	r3, r0
 428 0342 0C1C     		mov	r4, r1
 429 0344 181C     		mov	r0, r3
 430 0346 211C     		mov	r1, r4
 431 0348 164B     		ldr	r3, .L12+4
 432 034a 154A     		ldr	r2, .L12
 433 034c FFF7FEFF 		bl	__aeabi_ddiv
 434 0350 031C     		mov	r3, r0
 435 0352 0C1C     		mov	r4, r1
 436 0354 181C     		mov	r0, r3
 437 0356 211C     		mov	r1, r4
 438 0358 FFF7FEFF 		bl	cos
 439 035c 031C     		mov	r3, r0
 440 035e 0C1C     		mov	r4, r1
 441 0360 281C     		mov	r0, r5
 442 0362 311C     		mov	r1, r6
 443 0364 1A1C     		mov	r2, r3
 444 0366 231C     		mov	r3, r4
 445 0368 FFF7FEFF 		bl	__aeabi_dmul
 446 036c 031C     		mov	r3, r0
 447 036e 0C1C     		mov	r4, r1
 448 0370 1D1C     		mov	r5, r3
 449 0372 261C     		mov	r6, r4
 450 0374 386E     		ldr	r0, [r7, #96]
 451 0376 796E     		ldr	r1, [r7, #100]
 452 0378 0A4B     		ldr	r3, .L12+4
 453 037a 094A     		ldr	r2, .L12
 454 037c FFF7FEFF 		bl	__aeabi_ddiv
 455 0380 031C     		mov	r3, r0
 456 0382 0C1C     		mov	r4, r1
 457 0384 281C     		mov	r0, r5
 458 0386 311C     		mov	r1, r6
 459 0388 1A1C     		mov	r2, r3
 460 038a 231C     		mov	r3, r4
 461 038c FFF7FEFF 		bl	__aeabi_dsub
 462 0390 031C     		mov	r3, r0
 463 0392 0C1C     		mov	r4, r1
 464 0394 4146     		mov	r1, r8
 465 0396 0B60     		str	r3, [r1]
 466 0398 4C60     		str	r4, [r1, #4]
 467 039a A5E0     		b	.L1
 468              	.L13:
 469 039c C046C046 		.align	3
 470              	.L12:
 471 03a0 00000000 		.word	0
 472 03a4 00000840 		.word	1074266112
 473 03a8 00000000 		.word	0
 474 03ac 00002240 		.word	1075970048
 475 03b0 00000000 		.word	0
 476 03b4 00003B40 		.word	1077608448
 477 03b8 00000000 		.word	0
 478 03bc 00004B40 		.word	1078657024
 479 03c0 00000000 		.word	0
 480 03c4 00000000 		.word	0
 481 03c8 00000000 		.word	0
 482 03cc 000000C0 		.word	-1073741824
 483 03d0 182D4454 		.word	1413754136
 484 03d4 FB211940 		.word	1075388923
 485 03d8 182D4454 		.word	1413754136
 486 03dc FB212940 		.word	1076437499
 487              	.L10:
  33:../Sources/cubic.c ****       }
  34:../Sources/cubic.c ****       else
  35:../Sources/cubic.c ****       {
  36:../Sources/cubic.c ****             *solutions = 1;
 488              		.loc 1 36 0
 489 03e0 9022     		mov	r2, #144
 490 03e2 D219     		add	r2, r2, r7
 491 03e4 1368     		ldr	r3, [r2]
 492 03e6 0122     		mov	r2, #1
 493 03e8 1A60     		str	r2, [r3]
  37:../Sources/cubic.c ****             x[0] = pow(sqrt(R2_Q3)+fabs(R), 1/3.0);
 494              		.loc 1 37 0
 495 03ea BB6B     		ldr	r3, [r7, #56]
 496 03ec FC6B     		ldr	r4, [r7, #60]
 497 03ee 181C     		mov	r0, r3
 498 03f0 211C     		mov	r1, r4
 499 03f2 FFF7FEFF 		bl	sqrt
 500 03f6 031C     		mov	r3, r0
 501 03f8 0C1C     		mov	r4, r1
 502 03fa 3A6C     		ldr	r2, [r7, #64]
 503 03fc 151C     		mov	r5, r2
 504 03fe 7A6C     		ldr	r2, [r7, #68]
 505 0400 5200     		lsl	r2, r2, #1
 506 0402 5608     		lsr	r6, r2, #1
 507 0404 181C     		mov	r0, r3
 508 0406 211C     		mov	r1, r4
 509 0408 2A1C     		mov	r2, r5
 510 040a 331C     		mov	r3, r6
 511 040c FFF7FEFF 		bl	__aeabi_dadd
 512 0410 031C     		mov	r3, r0
 513 0412 0C1C     		mov	r4, r1
 514 0414 191C     		mov	r1, r3
 515 0416 221C     		mov	r2, r4
 516 0418 384C     		ldr	r4, .L14+4
 517 041a 374B     		ldr	r3, .L14
 518 041c 081C     		mov	r0, r1
 519 041e 111C     		mov	r1, r2
 520 0420 1A1C     		mov	r2, r3
 521 0422 231C     		mov	r3, r4
 522 0424 FFF7FEFF 		bl	pow
 523 0428 031C     		mov	r3, r0
 524 042a 0C1C     		mov	r4, r1
 525 042c 9421     		mov	r1, #148
 526 042e C919     		add	r1, r1, r7
 527 0430 0A68     		ldr	r2, [r1]
 528 0432 1360     		str	r3, [r2]
 529 0434 5460     		str	r4, [r2, #4]
  38:../Sources/cubic.c ****             x[0] += Q/x[0];
 530              		.loc 1 38 0
 531 0436 9422     		mov	r2, #148
 532 0438 D219     		add	r2, r2, r7
 533 043a 1368     		ldr	r3, [r2]
 534 043c 1D68     		ldr	r5, [r3]
 535 043e 5E68     		ldr	r6, [r3, #4]
 536 0440 9421     		mov	r1, #148
 537 0442 C919     		add	r1, r1, r7
 538 0444 0B68     		ldr	r3, [r1]
 539 0446 5C68     		ldr	r4, [r3, #4]
 540 0448 1B68     		ldr	r3, [r3]
 541 044a B86C     		ldr	r0, [r7, #72]
 542 044c F96C     		ldr	r1, [r7, #76]
 543 044e 1A1C     		mov	r2, r3
 544 0450 231C     		mov	r3, r4
 545 0452 FFF7FEFF 		bl	__aeabi_ddiv
 546 0456 031C     		mov	r3, r0
 547 0458 0C1C     		mov	r4, r1
 548 045a 281C     		mov	r0, r5
 549 045c 311C     		mov	r1, r6
 550 045e 1A1C     		mov	r2, r3
 551 0460 231C     		mov	r3, r4
 552 0462 FFF7FEFF 		bl	__aeabi_dadd
 553 0466 031C     		mov	r3, r0
 554 0468 0C1C     		mov	r4, r1
 555 046a 9421     		mov	r1, #148
 556 046c C919     		add	r1, r1, r7
 557 046e 0A68     		ldr	r2, [r1]
 558 0470 1360     		str	r3, [r2]
 559 0472 5460     		str	r4, [r2, #4]
  39:../Sources/cubic.c ****             x[0] *= (R < 0.0) ? 1 : -1;
 560              		.loc 1 39 0
 561 0474 9422     		mov	r2, #148
 562 0476 D219     		add	r2, r2, r7
 563 0478 1368     		ldr	r3, [r2]
 564 047a 1D68     		ldr	r5, [r3]
 565 047c 5E68     		ldr	r6, [r3, #4]
 566 047e 386C     		ldr	r0, [r7, #64]
 567 0480 796C     		ldr	r1, [r7, #68]
 568 0482 1F4A     		ldr	r2, .L14+8
 569 0484 1F4B     		ldr	r3, .L14+12
 570 0486 FFF7FEFF 		bl	__aeabi_dcmplt
 571 048a 031C     		mov	r3, r0
 572 048c 002B     		cmp	r3, #0
 573 048e 02D0     		beq	.L11
 574              		.loc 1 39 0 is_stmt 0 discriminator 1
 575 0490 1D4B     		ldr	r3, .L14+16
 576 0492 1E4C     		ldr	r4, .L14+20
 577 0494 01E0     		b	.L7
 578              	.L11:
 579              		.loc 1 39 0 discriminator 2
 580 0496 1E4B     		ldr	r3, .L14+24
 581 0498 1E4C     		ldr	r4, .L14+28
 582              	.L7:
 583              		.loc 1 39 0 discriminator 3
 584 049a 281C     		mov	r0, r5
 585 049c 311C     		mov	r1, r6
 586 049e 1A1C     		mov	r2, r3
 587 04a0 231C     		mov	r3, r4
 588 04a2 FFF7FEFF 		bl	__aeabi_dmul
 589 04a6 031C     		mov	r3, r0
 590 04a8 0C1C     		mov	r4, r1
 591 04aa 9421     		mov	r1, #148
 592 04ac C919     		add	r1, r1, r7
 593 04ae 0A68     		ldr	r2, [r1]
 594 04b0 1360     		str	r3, [r2]
 595 04b2 5460     		str	r4, [r2, #4]
  40:../Sources/cubic.c ****             x[0] -= a1/3.0;
 596              		.loc 1 40 0 is_stmt 1 discriminator 3
 597 04b4 9422     		mov	r2, #148
 598 04b6 D219     		add	r2, r2, r7
 599 04b8 1368     		ldr	r3, [r2]
 600 04ba 1D68     		ldr	r5, [r3]
 601 04bc 5E68     		ldr	r6, [r3, #4]
 602 04be 386E     		ldr	r0, [r7, #96]
 603 04c0 796E     		ldr	r1, [r7, #100]
 604 04c2 154A     		ldr	r2, .L14+32
 605 04c4 154B     		ldr	r3, .L14+36
 606 04c6 FFF7FEFF 		bl	__aeabi_ddiv
 607 04ca 031C     		mov	r3, r0
 608 04cc 0C1C     		mov	r4, r1
 609 04ce 281C     		mov	r0, r5
 610 04d0 311C     		mov	r1, r6
 611 04d2 1A1C     		mov	r2, r3
 612 04d4 231C     		mov	r3, r4
 613 04d6 FFF7FEFF 		bl	__aeabi_dsub
 614 04da 031C     		mov	r3, r0
 615 04dc 0C1C     		mov	r4, r1
 616 04de 9421     		mov	r1, #148
 617 04e0 C919     		add	r1, r1, r7
 618 04e2 0A68     		ldr	r2, [r1]
 619 04e4 1360     		str	r3, [r2]
 620 04e6 5460     		str	r4, [r2, #4]
 621              	.L1:
  41:../Sources/cubic.c ****       }
  42:../Sources/cubic.c **** }
 622              		.loc 1 42 0
 623 04e8 BD46     		mov	sp, r7
 624 04ea 1AB0     		add	sp, sp, #104
 625              		@ sp needed
 626 04ec 04BC     		pop	{r2}
 627 04ee 9046     		mov	r8, r2
 628 04f0 F0BD     		pop	{r4, r5, r6, r7, pc}
 629              	.L15:
 630 04f2 C046C046 		.align	3
 630      C046
 631              	.L14:
 632 04f8 55555555 		.word	1431655765
 633 04fc 5555D53F 		.word	1070945621
 634 0500 00000000 		.word	0
 635 0504 00000000 		.word	0
 636 0508 00000000 		.word	0
 637 050c 0000F03F 		.word	1072693248
 638 0510 00000000 		.word	0
 639 0514 0000F0BF 		.word	-1074790400
 640 0518 00000000 		.word	0
 641 051c 00000840 		.word	1074266112
 642              		.cfi_endproc
 643              	.LFE0:
 645              		.text
 646              	.Letext0:
DEFINED SYMBOLS
                            *ABS*:00000000 cubic.c
C:\Users\Marcos\AppData\Local\Temp\ccuq6VRE.s:24     .text.SolveCubic:00000000 $t
C:\Users\Marcos\AppData\Local\Temp\ccuq6VRE.s:29     .text.SolveCubic:00000000 SolveCubic
C:\Users\Marcos\AppData\Local\Temp\ccuq6VRE.s:471    .text.SolveCubic:000003a0 $d
C:\Users\Marcos\AppData\Local\Temp\ccuq6VRE.s:489    .text.SolveCubic:000003e0 $t
C:\Users\Marcos\AppData\Local\Temp\ccuq6VRE.s:632    .text.SolveCubic:000004f8 $d
                     .debug_frame:00000010 $d
                           .group:00000000 wm4.0.29490c0ea261f711663c3cb17a508067
                           .group:00000000 wm4.newlib.h.8.fec018e441fee7bfa1923812ad010f97
                           .group:00000000 wm4.features.h.22.6a4ca7cd053637cc1d0db6c16f39b2d7
                           .group:00000000 wm4.config.h.212.4163ef2871a828c674038d036b081cfd
                           .group:00000000 wm4._ansi.h.23.2147fde150631f5584b9dc29b914d1b8
                           .group:00000000 wm4.stddef.h.39.daafd3d79fe2f3a84d2d73d7d4e706f8
                           .group:00000000 wm4._default_types.h.6.9e4229723f5523536bc8f574589d6a99
                           .group:00000000 wm4.lock.h.2.9bc98482741e5e2a9450b12934a684ea
                           .group:00000000 wm4._types.h.54.d3d34a3b7f3cc230cd159baf022b4b08
                           .group:00000000 wm4.stddef.h.158.61317cdbfb4026324507d123a50b0fd6
                           .group:00000000 wm4.reent.h.17.8bd9e4098e0428508c282cad794fae43
                           .group:00000000 wm4.math.h.35.13c5bec129ef04ad1bb0a1152b29c624
                           .group:00000000 wm4.stdlib.h.13.4ed386f5c1a80d71e72172885d946ef2
                           .group:00000000 wm4.stddef.h.158.a7efb00f6cbc6f43213b50e183c9830c
                           .group:00000000 wm4.alloca.h.8.dfc0c703c47ec3e69746825b17d9e66d
                           .group:00000000 wm4.stdlib.h.53.1a82a3cc35cb0a04319c41bcf41d2a02
                           .group:00000000 wm4.cdefs.h.56.a2d04de9d47039852021e66fca39bb58
                           .group:00000000 wm4.string.h.15.dab3980bf35408a4c507182805e2de3a
                           .group:00000000 wm4.string.h.126.6ff3aa59129e7f66b2c273baf353e066
                           .group:00000000 wm4.sniptype.h.32.244f9ab42c383cc55130b2b86ec7ffe4
                           .group:00000000 wm4.round.h.8.729f1ed6638e13854b93dc09bb1fae8d
                           .group:00000000 wm4.snipmath.h.36.b2470b2398ac0a05e15436e39d45d831
                           .group:00000000 wm4.pi.h.4.58205aa136848155dbf747d79370097e
                           .group:00000000 wm4.snipmath.h.59.f60ed3a15506db681d35fee404cf8fe0

UNDEFINED SYMBOLS
__aeabi_ddiv
__aeabi_dmul
__aeabi_dsub
__aeabi_dadd
__aeabi_dcmple
__aeabi_dcmplt
sqrt
acos
cos
pow
