   1              		.cpu cortex-m0plus
   2              		.fpu softvfp
   3              		.eabi_attribute 20, 1
   4              		.eabi_attribute 21, 1
   5              		.eabi_attribute 23, 3
   6              		.eabi_attribute 24, 1
   7              		.eabi_attribute 25, 1
   8              		.eabi_attribute 26, 1
   9              		.eabi_attribute 30, 6
  10              		.eabi_attribute 34, 0
  11              		.eabi_attribute 18, 4
  12              		.code	16
  13              		.file	"util.c"
  14              		.text
  15              	.Ltext0:
  16              		.cfi_sections	.debug_frame
  17              		.section	.text.util_genDelay088us,"ax",%progbits
  18              		.align	2
  19              		.global	util_genDelay088us
  20              		.code	16
  21              		.thumb_func
  23              	util_genDelay088us:
  24              	.LFB0:
  25              		.file 1 "../Sources/util.c"
   1:../Sources/util.c **** /* ***************************************************************** */
   2:../Sources/util.c **** /* File name:        util.c                                          */
   3:../Sources/util.c **** /* File description: This file has a couple of useful functions to   */
   4:../Sources/util.c **** /*                   make programming more productive                */
   5:../Sources/util.c **** /*                                                                   */
   6:../Sources/util.c **** /*                   Remarks: The soft delays consider               */
   7:../Sources/util.c **** /*                   core clock @ 40MHz                              */
   8:../Sources/util.c **** /*                   bus clock @ 20MHz                               */
   9:../Sources/util.c **** /*                                                                   */
  10:../Sources/util.c **** /* Author name:      dloubach                                        */
  11:../Sources/util.c **** /* Creation date:    09jan2015                                       */
  12:../Sources/util.c **** /* Revision date:    21mar2016                                       */
  13:../Sources/util.c **** /* ***************************************************************** */
  14:../Sources/util.c **** 
  15:../Sources/util.c **** #include "util.h"
  16:../Sources/util.c **** 
  17:../Sources/util.c **** /* ************************************************ */
  18:../Sources/util.c **** /* Method name:        util_genDelay088us           */
  19:../Sources/util.c **** /* Method description: generates ~ 088 micro sec    */
  20:../Sources/util.c **** /* Input params:       n/a                          */
  21:../Sources/util.c **** /* Output params:      n/a                          */
  22:../Sources/util.c **** /* ************************************************ */
  23:../Sources/util.c **** void util_genDelay088us(void)
  24:../Sources/util.c **** {
  26              		.loc 1 24 0
  27              		.cfi_startproc
  28 0000 80B5     		push	{r7, lr}
  29              		.cfi_def_cfa_offset 8
  30              		.cfi_offset 7, -8
  31              		.cfi_offset 14, -4
  32 0002 82B0     		sub	sp, sp, #8
  33              		.cfi_def_cfa_offset 16
  34 0004 00AF     		add	r7, sp, #0
  35              		.cfi_def_cfa_register 7
  25:../Sources/util.c ****     char i;
  26:../Sources/util.c ****     for(i=0; i<120; i++)
  36              		.loc 1 26 0
  37 0006 FB1D     		add	r3, r7, #7
  38 0008 0022     		mov	r2, #0
  39 000a 1A70     		strb	r2, [r3]
  40 000c 13E0     		b	.L2
  41              	.L3:
  27:../Sources/util.c ****     {
  28:../Sources/util.c ****         __asm("NOP");
  42              		.loc 1 28 0 discriminator 2
  43              	@ 28 "../Sources/util.c" 1
  44 000e C046     		NOP
  45              	@ 0 "" 2
  29:../Sources/util.c ****         __asm("NOP");
  46              		.loc 1 29 0 discriminator 2
  47              	@ 29 "../Sources/util.c" 1
  48 0010 C046     		NOP
  49              	@ 0 "" 2
  30:../Sources/util.c ****         __asm("NOP");
  50              		.loc 1 30 0 discriminator 2
  51              	@ 30 "../Sources/util.c" 1
  52 0012 C046     		NOP
  53              	@ 0 "" 2
  31:../Sources/util.c ****         __asm("NOP");
  54              		.loc 1 31 0 discriminator 2
  55              	@ 31 "../Sources/util.c" 1
  56 0014 C046     		NOP
  57              	@ 0 "" 2
  32:../Sources/util.c ****         __asm("NOP");
  58              		.loc 1 32 0 discriminator 2
  59              	@ 32 "../Sources/util.c" 1
  60 0016 C046     		NOP
  61              	@ 0 "" 2
  33:../Sources/util.c ****         __asm("NOP");
  62              		.loc 1 33 0 discriminator 2
  63              	@ 33 "../Sources/util.c" 1
  64 0018 C046     		NOP
  65              	@ 0 "" 2
  34:../Sources/util.c ****         __asm("NOP");
  66              		.loc 1 34 0 discriminator 2
  67              	@ 34 "../Sources/util.c" 1
  68 001a C046     		NOP
  69              	@ 0 "" 2
  35:../Sources/util.c ****         __asm("NOP");
  70              		.loc 1 35 0 discriminator 2
  71              	@ 35 "../Sources/util.c" 1
  72 001c C046     		NOP
  73              	@ 0 "" 2
  36:../Sources/util.c ****         __asm("NOP");
  74              		.loc 1 36 0 discriminator 2
  75              	@ 36 "../Sources/util.c" 1
  76 001e C046     		NOP
  77              	@ 0 "" 2
  37:../Sources/util.c ****         __asm("NOP");
  78              		.loc 1 37 0 discriminator 2
  79              	@ 37 "../Sources/util.c" 1
  80 0020 C046     		NOP
  81              	@ 0 "" 2
  38:../Sources/util.c ****         __asm("NOP");
  82              		.loc 1 38 0 discriminator 2
  83              	@ 38 "../Sources/util.c" 1
  84 0022 C046     		NOP
  85              	@ 0 "" 2
  39:../Sources/util.c ****         __asm("NOP");
  86              		.loc 1 39 0 discriminator 2
  87              	@ 39 "../Sources/util.c" 1
  88 0024 C046     		NOP
  89              	@ 0 "" 2
  40:../Sources/util.c ****         __asm("NOP");
  90              		.loc 1 40 0 discriminator 2
  91              	@ 40 "../Sources/util.c" 1
  92 0026 C046     		NOP
  93              	@ 0 "" 2
  41:../Sources/util.c ****         __asm("NOP");
  94              		.loc 1 41 0 discriminator 2
  95              	@ 41 "../Sources/util.c" 1
  96 0028 C046     		NOP
  97              	@ 0 "" 2
  42:../Sources/util.c ****         __asm("NOP");
  98              		.loc 1 42 0 discriminator 2
  99              	@ 42 "../Sources/util.c" 1
 100 002a C046     		NOP
 101              	@ 0 "" 2
  26:../Sources/util.c ****     for(i=0; i<120; i++)
 102              		.loc 1 26 0 discriminator 2
 103              		.code	16
 104 002c FB1D     		add	r3, r7, #7
 105 002e 1A78     		ldrb	r2, [r3]
 106 0030 FB1D     		add	r3, r7, #7
 107 0032 0132     		add	r2, r2, #1
 108 0034 1A70     		strb	r2, [r3]
 109              	.L2:
  26:../Sources/util.c ****     for(i=0; i<120; i++)
 110              		.loc 1 26 0 is_stmt 0 discriminator 1
 111 0036 FB1D     		add	r3, r7, #7
 112 0038 1B78     		ldrb	r3, [r3]
 113 003a 5BB2     		sxtb	r3, r3
 114 003c 772B     		cmp	r3, #119
 115 003e E6DD     		ble	.L3
  43:../Sources/util.c ****     }
  44:../Sources/util.c **** }
 116              		.loc 1 44 0 is_stmt 1
 117 0040 BD46     		mov	sp, r7
 118 0042 02B0     		add	sp, sp, #8
 119              		@ sp needed
 120 0044 80BD     		pop	{r7, pc}
 121              		.cfi_endproc
 122              	.LFE0:
 124 0046 C046     		.section	.text.util_genDelay250us,"ax",%progbits
 125              		.align	2
 126              		.global	util_genDelay250us
 127              		.code	16
 128              		.thumb_func
 130              	util_genDelay250us:
 131              	.LFB1:
  45:../Sources/util.c **** 
  46:../Sources/util.c **** 
  47:../Sources/util.c **** 
  48:../Sources/util.c **** /* ************************************************ */
  49:../Sources/util.c **** /* Method name:        util_genDelay250us           */
  50:../Sources/util.c **** /* Method description: generates ~   250 micro sec  */
  51:../Sources/util.c **** /* Input params:       n/a                          */
  52:../Sources/util.c **** /* Output params:      n/a                          */
  53:../Sources/util.c **** /* ************************************************ */
  54:../Sources/util.c **** void util_genDelay250us(void)
  55:../Sources/util.c **** {
 132              		.loc 1 55 0
 133              		.cfi_startproc
 134 0000 80B5     		push	{r7, lr}
 135              		.cfi_def_cfa_offset 8
 136              		.cfi_offset 7, -8
 137              		.cfi_offset 14, -4
 138 0002 82B0     		sub	sp, sp, #8
 139              		.cfi_def_cfa_offset 16
 140 0004 00AF     		add	r7, sp, #0
 141              		.cfi_def_cfa_register 7
  56:../Sources/util.c ****     char i;
  57:../Sources/util.c ****     for(i=0; i<120; i++)
 142              		.loc 1 57 0
 143 0006 FB1D     		add	r3, r7, #7
 144 0008 0022     		mov	r2, #0
 145 000a 1A70     		strb	r2, [r3]
 146 000c 0EE0     		b	.L5
 147              	.L6:
  58:../Sources/util.c ****     {
  59:../Sources/util.c ****         __asm("NOP");
 148              		.loc 1 59 0 discriminator 2
 149              	@ 59 "../Sources/util.c" 1
 150 000e C046     		NOP
 151              	@ 0 "" 2
  60:../Sources/util.c ****         __asm("NOP");
 152              		.loc 1 60 0 discriminator 2
 153              	@ 60 "../Sources/util.c" 1
 154 0010 C046     		NOP
 155              	@ 0 "" 2
  61:../Sources/util.c ****         __asm("NOP");
 156              		.loc 1 61 0 discriminator 2
 157              	@ 61 "../Sources/util.c" 1
 158 0012 C046     		NOP
 159              	@ 0 "" 2
  62:../Sources/util.c ****         __asm("NOP");
 160              		.loc 1 62 0 discriminator 2
 161              	@ 62 "../Sources/util.c" 1
 162 0014 C046     		NOP
 163              	@ 0 "" 2
  63:../Sources/util.c ****         __asm("NOP");
 164              		.loc 1 63 0 discriminator 2
 165              	@ 63 "../Sources/util.c" 1
 166 0016 C046     		NOP
 167              	@ 0 "" 2
  64:../Sources/util.c ****         __asm("NOP");
 168              		.loc 1 64 0 discriminator 2
 169              	@ 64 "../Sources/util.c" 1
 170 0018 C046     		NOP
 171              	@ 0 "" 2
  65:../Sources/util.c ****         __asm("NOP");
 172              		.loc 1 65 0 discriminator 2
 173              	@ 65 "../Sources/util.c" 1
 174 001a C046     		NOP
 175              	@ 0 "" 2
  66:../Sources/util.c ****         __asm("NOP");
 176              		.loc 1 66 0 discriminator 2
 177              	@ 66 "../Sources/util.c" 1
 178 001c C046     		NOP
 179              	@ 0 "" 2
  67:../Sources/util.c ****         __asm("NOP");
 180              		.loc 1 67 0 discriminator 2
 181              	@ 67 "../Sources/util.c" 1
 182 001e C046     		NOP
 183              	@ 0 "" 2
  68:../Sources/util.c ****         __asm("NOP");
 184              		.loc 1 68 0 discriminator 2
 185              	@ 68 "../Sources/util.c" 1
 186 0020 C046     		NOP
 187              	@ 0 "" 2
  57:../Sources/util.c ****     for(i=0; i<120; i++)
 188              		.loc 1 57 0 discriminator 2
 189              		.code	16
 190 0022 FB1D     		add	r3, r7, #7
 191 0024 1A78     		ldrb	r2, [r3]
 192 0026 FB1D     		add	r3, r7, #7
 193 0028 0132     		add	r2, r2, #1
 194 002a 1A70     		strb	r2, [r3]
 195              	.L5:
  57:../Sources/util.c ****     for(i=0; i<120; i++)
 196              		.loc 1 57 0 is_stmt 0 discriminator 1
 197 002c FB1D     		add	r3, r7, #7
 198 002e 1B78     		ldrb	r3, [r3]
 199 0030 5BB2     		sxtb	r3, r3
 200 0032 772B     		cmp	r3, #119
 201 0034 EBDD     		ble	.L6
  69:../Sources/util.c ****     }
  70:../Sources/util.c ****     util_genDelay088us();
 202              		.loc 1 70 0 is_stmt 1
 203 0036 FFF7FEFF 		bl	util_genDelay088us
  71:../Sources/util.c ****     util_genDelay088us();
 204              		.loc 1 71 0
 205 003a FFF7FEFF 		bl	util_genDelay088us
  72:../Sources/util.c **** }
 206              		.loc 1 72 0
 207 003e BD46     		mov	sp, r7
 208 0040 02B0     		add	sp, sp, #8
 209              		@ sp needed
 210 0042 80BD     		pop	{r7, pc}
 211              		.cfi_endproc
 212              	.LFE1:
 214              		.section	.text.util_genDelay1ms,"ax",%progbits
 215              		.align	2
 216              		.global	util_genDelay1ms
 217              		.code	16
 218              		.thumb_func
 220              	util_genDelay1ms:
 221              	.LFB2:
  73:../Sources/util.c **** 
  74:../Sources/util.c **** 
  75:../Sources/util.c **** 
  76:../Sources/util.c **** /* ************************************************ */
  77:../Sources/util.c **** /* Method name:        util_genDelay1ms             */
  78:../Sources/util.c **** /* Method description: generates ~   1 mili sec     */
  79:../Sources/util.c **** /* Input params:       n/a                          */
  80:../Sources/util.c **** /* Output params:      n/a                          */
  81:../Sources/util.c **** /* ************************************************ */
  82:../Sources/util.c **** void util_genDelay1ms(void)
  83:../Sources/util.c **** {
 222              		.loc 1 83 0
 223              		.cfi_startproc
 224 0000 80B5     		push	{r7, lr}
 225              		.cfi_def_cfa_offset 8
 226              		.cfi_offset 7, -8
 227              		.cfi_offset 14, -4
 228 0002 00AF     		add	r7, sp, #0
 229              		.cfi_def_cfa_register 7
  84:../Sources/util.c ****     util_genDelay250us();
 230              		.loc 1 84 0
 231 0004 FFF7FEFF 		bl	util_genDelay250us
  85:../Sources/util.c ****     util_genDelay250us();
 232              		.loc 1 85 0
 233 0008 FFF7FEFF 		bl	util_genDelay250us
  86:../Sources/util.c ****     util_genDelay250us();
 234              		.loc 1 86 0
 235 000c FFF7FEFF 		bl	util_genDelay250us
  87:../Sources/util.c ****     util_genDelay250us();
 236              		.loc 1 87 0
 237 0010 FFF7FEFF 		bl	util_genDelay250us
  88:../Sources/util.c **** }
 238              		.loc 1 88 0
 239 0014 BD46     		mov	sp, r7
 240              		@ sp needed
 241 0016 80BD     		pop	{r7, pc}
 242              		.cfi_endproc
 243              	.LFE2:
 245              		.section	.text.util_genDelay10ms,"ax",%progbits
 246              		.align	2
 247              		.global	util_genDelay10ms
 248              		.code	16
 249              		.thumb_func
 251              	util_genDelay10ms:
 252              	.LFB3:
  89:../Sources/util.c **** 
  90:../Sources/util.c **** 
  91:../Sources/util.c **** /* ************************************************ */
  92:../Sources/util.c **** /* Method name:        util_genDelay10ms            */
  93:../Sources/util.c **** /* Method description: generates ~   10 mili sec    */
  94:../Sources/util.c **** /* Input params:       n/a                          */
  95:../Sources/util.c **** /* Output params:      n/a                          */
  96:../Sources/util.c **** /* ************************************************ */
  97:../Sources/util.c **** void util_genDelay10ms(void)
  98:../Sources/util.c **** {
 253              		.loc 1 98 0
 254              		.cfi_startproc
 255 0000 80B5     		push	{r7, lr}
 256              		.cfi_def_cfa_offset 8
 257              		.cfi_offset 7, -8
 258              		.cfi_offset 14, -4
 259 0002 00AF     		add	r7, sp, #0
 260              		.cfi_def_cfa_register 7
  99:../Sources/util.c ****     util_genDelay1ms();
 261              		.loc 1 99 0
 262 0004 FFF7FEFF 		bl	util_genDelay1ms
 100:../Sources/util.c ****     util_genDelay1ms();
 263              		.loc 1 100 0
 264 0008 FFF7FEFF 		bl	util_genDelay1ms
 101:../Sources/util.c ****     util_genDelay1ms();
 265              		.loc 1 101 0
 266 000c FFF7FEFF 		bl	util_genDelay1ms
 102:../Sources/util.c ****     util_genDelay1ms();
 267              		.loc 1 102 0
 268 0010 FFF7FEFF 		bl	util_genDelay1ms
 103:../Sources/util.c ****     util_genDelay1ms();
 269              		.loc 1 103 0
 270 0014 FFF7FEFF 		bl	util_genDelay1ms
 104:../Sources/util.c ****     util_genDelay1ms();
 271              		.loc 1 104 0
 272 0018 FFF7FEFF 		bl	util_genDelay1ms
 105:../Sources/util.c ****     util_genDelay1ms();
 273              		.loc 1 105 0
 274 001c FFF7FEFF 		bl	util_genDelay1ms
 106:../Sources/util.c ****     util_genDelay1ms();
 275              		.loc 1 106 0
 276 0020 FFF7FEFF 		bl	util_genDelay1ms
 107:../Sources/util.c ****     util_genDelay1ms();
 277              		.loc 1 107 0
 278 0024 FFF7FEFF 		bl	util_genDelay1ms
 108:../Sources/util.c ****     util_genDelay1ms();
 279              		.loc 1 108 0
 280 0028 FFF7FEFF 		bl	util_genDelay1ms
 109:../Sources/util.c **** }
 281              		.loc 1 109 0
 282 002c BD46     		mov	sp, r7
 283              		@ sp needed
 284 002e 80BD     		pop	{r7, pc}
 285              		.cfi_endproc
 286              	.LFE3:
 288              		.text
 289              	.Letext0:
DEFINED SYMBOLS
                            *ABS*:00000000 util.c
C:\Users\Marcos\AppData\Local\Temp\cc7iEP9Q.s:18     .text.util_genDelay088us:00000000 $t
C:\Users\Marcos\AppData\Local\Temp\cc7iEP9Q.s:23     .text.util_genDelay088us:00000000 util_genDelay088us
C:\Users\Marcos\AppData\Local\Temp\cc7iEP9Q.s:125    .text.util_genDelay250us:00000000 $t
C:\Users\Marcos\AppData\Local\Temp\cc7iEP9Q.s:130    .text.util_genDelay250us:00000000 util_genDelay250us
C:\Users\Marcos\AppData\Local\Temp\cc7iEP9Q.s:215    .text.util_genDelay1ms:00000000 $t
C:\Users\Marcos\AppData\Local\Temp\cc7iEP9Q.s:220    .text.util_genDelay1ms:00000000 util_genDelay1ms
C:\Users\Marcos\AppData\Local\Temp\cc7iEP9Q.s:246    .text.util_genDelay10ms:00000000 $t
C:\Users\Marcos\AppData\Local\Temp\cc7iEP9Q.s:251    .text.util_genDelay10ms:00000000 util_genDelay10ms
                     .debug_frame:00000010 $d
                           .group:00000000 wm4.0.29490c0ea261f711663c3cb17a508067

NO UNDEFINED SYMBOLS
