   1              		.cpu cortex-m0plus
   2              		.fpu softvfp
   3              		.eabi_attribute 20, 1
   4              		.eabi_attribute 21, 1
   5              		.eabi_attribute 23, 3
   6              		.eabi_attribute 24, 1
   7              		.eabi_attribute 25, 1
   8              		.eabi_attribute 26, 1
   9              		.eabi_attribute 30, 6
  10              		.eabi_attribute 34, 0
  11              		.eabi_attribute 18, 4
  12              		.code	16
  13              		.file	"main.c"
  14              		.text
  15              	.Ltext0:
  16              		.cfi_sections	.debug_frame
  17              		.section	.bss.table,"aw",%nobits
  18              		.align	2
  21              	table:
  22 0000 00000000 		.space	1024
  22      00000000 
  22      00000000 
  22      00000000 
  22      00000000 
  23              		.section	.bss.len,"aw",%nobits
  24              		.align	2
  27              	len:
  28 0000 00000000 		.space	4
  29              		.section	.bss.findme,"aw",%nobits
  30              		.align	2
  33              	findme:
  34 0000 00000000 		.space	4
  35              		.global	OF_COUNT
  36              		.section	.bss.OF_COUNT,"aw",%nobits
  37              		.align	2
  40              	OF_COUNT:
  41 0000 00000000 		.space	4
  42              		.comm	TPM0Clock,4,4
  43              		.comm	TPM1Clock,4,4
  44              		.comm	CoreClock,4,4
  45              		.section	.text.RTC_IRQHandler,"ax",%progbits
  46              		.align	2
  47              		.global	RTC_IRQHandler
  48              		.code	16
  49              		.thumb_func
  51              	RTC_IRQHandler:
  52              	.LFB146:
  53              		.file 1 "../Sources/main.c"
   1:../Sources/main.c **** /*
   2:../Sources/main.c ****  * Copyright (c) 2014, Freescale Semiconductor, Inc.
   3:../Sources/main.c ****  * All rights reserved.
   4:../Sources/main.c ****  *
   5:../Sources/main.c ****  * Redistribution and use in source and binary forms, with or without modification,
   6:../Sources/main.c ****  * are permitted provided that the following conditions are met:
   7:../Sources/main.c ****  *
   8:../Sources/main.c ****  * o Redistributions of source code must retain the above copyright notice, this list
   9:../Sources/main.c ****  *   of conditions and the following disclaimer.
  10:../Sources/main.c ****  *
  11:../Sources/main.c ****  * o Redistributions in binary form must reproduce the above copyright notice, this
  12:../Sources/main.c ****  *   list of conditions and the following disclaimer in the documentation and/or
  13:../Sources/main.c ****  *   other materials provided with the distribution.
  14:../Sources/main.c ****  *
  15:../Sources/main.c ****  * o Neither the name of Freescale Semiconductor, Inc. nor the names of its
  16:../Sources/main.c ****  *   contributors may be used to endorse or promote products derived from this
  17:../Sources/main.c ****  *   software without specific prior written permission.
  18:../Sources/main.c ****  *
  19:../Sources/main.c ****  * THIS SOFTWARE IS PROVIDED BY THE COPYRIGHT HOLDERS AND CONTRIBUTORS "AS IS" AND
  20:../Sources/main.c ****  * ANY EXPRESS OR IMPLIED WARRANTIES, INCLUDING, BUT NOT LIMITED TO, THE IMPLIED
  21:../Sources/main.c ****  * WARRANTIES OF MERCHANTABILITY AND FITNESS FOR A PARTICULAR PURPOSE ARE
  22:../Sources/main.c ****  * DISCLAIMED. IN NO EVENT SHALL THE COPYRIGHT HOLDER OR CONTRIBUTORS BE LIABLE FOR
  23:../Sources/main.c ****  * ANY DIRECT, INDIRECT, INCIDENTAL, SPECIAL, EXEMPLARY, OR CONSEQUENTIAL DAMAGES
  24:../Sources/main.c ****  * (INCLUDING, BUT NOT LIMITED TO, PROCUREMENT OF SUBSTITUTE GOODS OR SERVICES;
  25:../Sources/main.c ****  * LOSS OF USE, DATA, OR PROFITS; OR BUSINESS INTERRUPTION) HOWEVER CAUSED AND ON
  26:../Sources/main.c ****  * ANY THEORY OF LIABILITY, WHETHER IN CONTRACT, STRICT LIABILITY, OR TORT
  27:../Sources/main.c ****  * (INCLUDING NEGLIGENCE OR OTHERWISE) ARISING IN ANY WAY OUT OF THE USE OF THIS
  28:../Sources/main.c ****  * SOFTWARE, EVEN IF ADVISED OF THE POSSIBILITY OF SUCH DAMAGE.
  29:../Sources/main.c ****  */
  30:../Sources/main.c **** 
  31:../Sources/main.c **** ///////////////////////////////////////////////////////////////////////////////
  32:../Sources/main.c **** // Includes
  33:../Sources/main.c **** ///////////////////////////////////////////////////////////////////////////////
  34:../Sources/main.c **** // Standard C Included Files
  35:../Sources/main.c **** #include <stdio.h>
  36:../Sources/main.c **** #include <stdlib.h>
  37:../Sources/main.c **** #include <time.h>
  38:../Sources/main.c **** 
  39:../Sources/main.c **** // SDK Included Files
  40:../Sources/main.c **** #include "fsl_tpm_driver.h"
  41:../Sources/main.c **** #include "board.h"
  42:../Sources/main.c **** #include "fsl_debug_console.h"
  43:../Sources/main.c **** #include "fsl_os_abstraction.h"
  44:../Sources/main.c **** #include "fsl_rtc_driver.h"
  45:../Sources/main.c **** 
  46:../Sources/main.c **** // Benchmark include
  47:../Sources/main.c **** #include <stddef.h>
  48:../Sources/main.c **** #include <string.h>
  49:../Sources/main.c **** #include <limits.h>
  50:../Sources/main.c **** 
  51:../Sources/main.c **** // LCD Include files
  52:../Sources/main.c **** #include "lcd_hal.h"
  53:../Sources/main.c **** 
  54:../Sources/main.c **** static size_t table[UCHAR_MAX + 1];
  55:../Sources/main.c **** static size_t len;
  56:../Sources/main.c **** static char *findme;
  57:../Sources/main.c **** 
  58:../Sources/main.c **** #define TMR_PERIOD         500000U
  59:../Sources/main.c **** #if defined(TWR_KV46F150M)
  60:../Sources/main.c **** #define LPTMR0_IDX LPTMR_IDX
  61:../Sources/main.c **** #endif
  62:../Sources/main.c **** #define TPM_MAX_MOD 65536
  63:../Sources/main.c **** #define RTC_INSTANCE      BOARD_RTC_FUNC_INSTANCE
  64:../Sources/main.c **** 
  65:../Sources/main.c **** int OF_COUNT = 0; //OverFlow COUNTer
  66:../Sources/main.c **** uint32_t TPM0Clock, TPM1Clock, CoreClock;
  67:../Sources/main.c **** 
  68:../Sources/main.c **** /*!
  69:../Sources/main.c **** * @brief ISR for Alarm interrupt
  70:../Sources/main.c **** *
  71:../Sources/main.c **** * This function change state of busyWait.
  72:../Sources/main.c **** */
  73:../Sources/main.c **** void RTC_IRQHandler(void)
  74:../Sources/main.c **** {
  54              		.loc 1 74 0
  55              		.cfi_startproc
  56 0000 80B5     		push	{r7, lr}
  57              		.cfi_def_cfa_offset 8
  58              		.cfi_offset 7, -8
  59              		.cfi_offset 14, -4
  60 0002 00AF     		add	r7, sp, #0
  61              		.cfi_def_cfa_register 7
  75:../Sources/main.c ****     if (RTC_DRV_IsAlarmPending(RTC_INSTANCE))
  62              		.loc 1 75 0
  63 0004 0020     		mov	r0, #0
  64 0006 FFF7FEFF 		bl	RTC_DRV_IsAlarmPending
  65 000a 031C     		mov	r3, r0
  66 000c 002B     		cmp	r3, #0
  67 000e 03D0     		beq	.L1
  76:../Sources/main.c ****     {
  77:../Sources/main.c ****         //busyWait = false;
  78:../Sources/main.c ****         // Disable second interrupt
  79:../Sources/main.c ****         RTC_DRV_SetAlarmIntCmd(RTC_INSTANCE, false);
  68              		.loc 1 79 0
  69 0010 0020     		mov	r0, #0
  70 0012 0021     		mov	r1, #0
  71 0014 FFF7FEFF 		bl	RTC_DRV_SetAlarmIntCmd
  72              	.L1:
  80:../Sources/main.c ****     }
  81:../Sources/main.c **** }
  73              		.loc 1 81 0
  74 0018 BD46     		mov	sp, r7
  75              		@ sp needed
  76 001a 80BD     		pop	{r7, pc}
  77              		.cfi_endproc
  78              	.LFE146:
  80              		.section	.text.TPM0_IRQHandler,"ax",%progbits
  81              		.align	2
  82              		.global	TPM0_IRQHandler
  83              		.code	16
  84              		.thumb_func
  86              	TPM0_IRQHandler:
  87              	.LFB147:
  82:../Sources/main.c **** /*!
  83:../Sources/main.c ****  * @brief Interrupt handler
  84:../Sources/main.c ****  *
  85:../Sources/main.c ****  * This function is used to handle interruptions
  86:../Sources/main.c ****  * and increment a counter
  87:../Sources/main.c ****  */
  88:../Sources/main.c **** void TPM0_IRQHandler()
  89:../Sources/main.c **** {
  88              		.loc 1 89 0
  89              		.cfi_startproc
  90 0000 80B5     		push	{r7, lr}
  91              		.cfi_def_cfa_offset 8
  92              		.cfi_offset 7, -8
  93              		.cfi_offset 14, -4
  94 0002 00AF     		add	r7, sp, #0
  95              		.cfi_def_cfa_register 7
  90:../Sources/main.c ****     //Clear the overflow mask if set.   According to the reference manual, we clear by writing a lo
  91:../Sources/main.c **** 	if(TPM0_SC & TPM_SC_TOF_MASK) // Este IF nao esta fazendo sentido
  96              		.loc 1 91 0
  97 0004 084B     		ldr	r3, .L5
  98 0006 1A68     		ldr	r2, [r3]
  99 0008 8023     		mov	r3, #128
 100 000a 1340     		and	r3, r2
 101 000c 05D0     		beq	.L4
  92:../Sources/main.c **** 	{
  93:../Sources/main.c **** 		TPM0_SC |= TPM_SC_TOF_MASK;
 102              		.loc 1 93 0
 103 000e 064B     		ldr	r3, .L5
 104 0010 054A     		ldr	r2, .L5
 105 0012 1268     		ldr	r2, [r2]
 106 0014 8021     		mov	r1, #128
 107 0016 0A43     		orr	r2, r1
 108 0018 1A60     		str	r2, [r3]
 109              	.L4:
  94:../Sources/main.c **** 	}
  95:../Sources/main.c **** 	OF_COUNT = OF_COUNT + 1;
 110              		.loc 1 95 0
 111 001a 044B     		ldr	r3, .L5+4
 112 001c 1B68     		ldr	r3, [r3]
 113 001e 5A1C     		add	r2, r3, #1
 114 0020 024B     		ldr	r3, .L5+4
 115 0022 1A60     		str	r2, [r3]
  96:../Sources/main.c **** }
 116              		.loc 1 96 0
 117 0024 BD46     		mov	sp, r7
 118              		@ sp needed
 119 0026 80BD     		pop	{r7, pc}
 120              	.L6:
 121              		.align	2
 122              	.L5:
 123 0028 00800340 		.word	1073971200
 124 002c 00000000 		.word	OF_COUNT
 125              		.cfi_endproc
 126              	.LFE147:
 128              		.section	.rodata
 129              		.align	2
 130              	.LC107:
 131 0000 48617264 		.ascii	"Hardware inicializado\015\000"
 131      77617265 
 131      20696E69 
 131      6369616C 
 131      697A6164 
 132 0017 00       		.align	2
 133              	.LC111:
 134 0018 54504D20 		.ascii	"TPM configurado\015\000"
 134      636F6E66 
 134      69677572 
 134      61646F0D 
 134      00
 135              		.section	.text.init_board,"ax",%progbits
 136              		.align	2
 137              		.global	init_board
 138              		.code	16
 139              		.thumb_func
 141              	init_board:
 142              	.LFB148:
  97:../Sources/main.c **** 
  98:../Sources/main.c **** void init_board(int tpmMod)
  99:../Sources/main.c **** {
 143              		.loc 1 99 0
 144              		.cfi_startproc
 145 0000 80B5     		push	{r7, lr}
 146              		.cfi_def_cfa_offset 8
 147              		.cfi_offset 7, -8
 148              		.cfi_offset 14, -4
 149 0002 84B0     		sub	sp, sp, #16
 150              		.cfi_def_cfa_offset 24
 151 0004 00AF     		add	r7, sp, #0
 152              		.cfi_def_cfa_register 7
 153 0006 7860     		str	r0, [r7, #4]
 100:../Sources/main.c **** 
 101:../Sources/main.c **** 	tpm_general_config_t driverInfo;
 102:../Sources/main.c **** 	/*tpm_pwm_param_t param = {
 103:../Sources/main.c **** 			.mode              = kTpmEdgeAlignedPWM,
 104:../Sources/main.c **** 			.edgeMode          = kTpmHighTrue,
 105:../Sources/main.c **** 			.uFrequencyHZ      = 120000u,
 106:../Sources/main.c **** 			.uDutyCyclePercent = 99u
 107:../Sources/main.c **** 	};*/
 108:../Sources/main.c **** 
 109:../Sources/main.c **** 	// Init hardware
 110:../Sources/main.c **** 	hardware_init();
 154              		.loc 1 110 0
 155 0008 FFF7FEFF 		bl	hardware_init
 111:../Sources/main.c **** 
 112:../Sources/main.c **** 	// Inicializacao LCD para release
 113:../Sources/main.c **** 	lcd_initLcd();
 156              		.loc 1 113 0
 157 000c FFF7FEFF 		bl	lcd_initLcd
 114:../Sources/main.c **** 
 115:../Sources/main.c **** 	// Print a note.
 116:../Sources/main.c **** 	printf("Hardware inicializado\r\n");
 158              		.loc 1 116 0
 159 0010 144B     		ldr	r3, .L8
 160 0012 181C     		mov	r0, r3
 161 0014 FFF7FEFF 		bl	puts
 117:../Sources/main.c **** 	// Prepare memory for initialization.
 118:../Sources/main.c **** 	memset(&driverInfo, 0, sizeof(driverInfo));
 162              		.loc 1 118 0
 163 0018 3B1C     		mov	r3, r7
 164 001a 0833     		add	r3, r3, #8
 165 001c 181C     		mov	r0, r3
 166 001e 0021     		mov	r1, #0
 167 0020 0622     		mov	r2, #6
 168 0022 FFF7FEFF 		bl	memset
 119:../Sources/main.c **** 	// Init TPM.
 120:../Sources/main.c **** 	TPM_DRV_Init(BOARD_TPM_INSTANCE, &driverInfo);
 169              		.loc 1 120 0
 170 0026 3B1C     		mov	r3, r7
 171 0028 0833     		add	r3, r3, #8
 172 002a 0020     		mov	r0, #0
 173 002c 191C     		mov	r1, r3
 174 002e FFF7FEFF 		bl	TPM_DRV_Init
 121:../Sources/main.c **** 	// Set clock for TPM.
 122:../Sources/main.c **** 	TPM_DRV_SetClock(BOARD_TPM_INSTANCE, kTpmClockSourceModuleHighFreq, kTpmDividedBy2);
 175              		.loc 1 122 0
 176 0032 0020     		mov	r0, #0
 177 0034 0121     		mov	r1, #1
 178 0036 0122     		mov	r2, #1
 179 0038 FFF7FEFF 		bl	TPM_DRV_SetClock
 123:../Sources/main.c **** 
 124:../Sources/main.c **** 	TPM0Clock = TPM_DRV_GetClock(BOARD_TPM_INSTANCE);
 180              		.loc 1 124 0
 181 003c 0020     		mov	r0, #0
 182 003e FFF7FEFF 		bl	TPM_DRV_GetClock
 183 0042 021C     		mov	r2, r0
 184 0044 084B     		ldr	r3, .L8+4
 185 0046 1A60     		str	r2, [r3]
 125:../Sources/main.c **** 	CoreClock = CLOCK_SYS_GetSystemClockFreq();
 186              		.loc 1 125 0
 187 0048 FFF7FEFF 		bl	CLOCK_SYS_GetSystemClockFreq
 188 004c 031C     		mov	r3, r0
 189 004e 1A1C     		mov	r2, r3
 190 0050 064B     		ldr	r3, .L8+8
 191 0052 1A60     		str	r2, [r3]
 126:../Sources/main.c **** 	printf("TPM configurado\r\n");
 192              		.loc 1 126 0
 193 0054 064B     		ldr	r3, .L8+12
 194 0056 181C     		mov	r0, r3
 195 0058 FFF7FEFF 		bl	puts
 127:../Sources/main.c **** 	//printf("Core Clock: %d || TPM 0 Clock: %d || TPM Mod: %d \r\n", CoreClock, TPM0Clock, tpmMod);
 128:../Sources/main.c **** }
 196              		.loc 1 128 0
 197 005c BD46     		mov	sp, r7
 198 005e 04B0     		add	sp, sp, #16
 199              		@ sp needed
 200 0060 80BD     		pop	{r7, pc}
 201              	.L9:
 202 0062 C046     		.align	2
 203              	.L8:
 204 0064 00000000 		.word	.LC107
 205 0068 00000000 		.word	TPM0Clock
 206 006c 00000000 		.word	CoreClock
 207 0070 18000000 		.word	.LC111
 208              		.cfi_endproc
 209              	.LFE148:
 211              		.global	__aeabi_idivmod
 212              		.global	__aeabi_idiv
 213              		.section	.text.writeOF,"ax",%progbits
 214              		.align	2
 215              		.global	writeOF
 216              		.code	16
 217              		.thumb_func
 219              	writeOF:
 220              	.LFB149:
 129:../Sources/main.c **** 
 130:../Sources/main.c **** 
 131:../Sources/main.c **** /*!
 132:../Sources/main.c ****  * @brief Write OF count values to release
 133:../Sources/main.c ****  *
 134:../Sources/main.c ****  *
 135:../Sources/main.c ****  */
 136:../Sources/main.c **** void writeOF(int OFMedido)
 137:../Sources/main.c **** {
 221              		.loc 1 137 0
 222              		.cfi_startproc
 223 0000 80B5     		push	{r7, lr}
 224              		.cfi_def_cfa_offset 8
 225              		.cfi_offset 7, -8
 226              		.cfi_offset 14, -4
 227 0002 88B0     		sub	sp, sp, #32
 228              		.cfi_def_cfa_offset 40
 229 0004 00AF     		add	r7, sp, #0
 230              		.cfi_def_cfa_register 7
 231 0006 7860     		str	r0, [r7, #4]
 138:../Sources/main.c **** 	char cOverflow[10];
 139:../Sources/main.c **** 	int i, div;
 140:../Sources/main.c **** 	div = OFMedido;
 232              		.loc 1 140 0
 233 0008 7B68     		ldr	r3, [r7, #4]
 234 000a BB61     		str	r3, [r7, #24]
 141:../Sources/main.c **** 	for(i = 9; i >= 0; i--)
 235              		.loc 1 141 0
 236 000c 0923     		mov	r3, #9
 237 000e FB61     		str	r3, [r7, #28]
 238 0010 18E0     		b	.L11
 239              	.L12:
 142:../Sources/main.c **** 	{
 143:../Sources/main.c **** 		cOverflow[i] = div % 10 + '0';
 240              		.loc 1 143 0 discriminator 2
 241 0012 BB69     		ldr	r3, [r7, #24]
 242 0014 181C     		mov	r0, r3
 243 0016 0A21     		mov	r1, #10
 244 0018 FFF7FEFF 		bl	__aeabi_idivmod
 245 001c 0B1C     		mov	r3, r1
 246 001e DBB2     		uxtb	r3, r3
 247 0020 3033     		add	r3, r3, #48
 248 0022 DBB2     		uxtb	r3, r3
 249 0024 DAB2     		uxtb	r2, r3
 250 0026 391C     		mov	r1, r7
 251 0028 0C31     		add	r1, r1, #12
 252 002a FB69     		ldr	r3, [r7, #28]
 253 002c CB18     		add	r3, r1, r3
 254 002e 1A70     		strb	r2, [r3]
 144:../Sources/main.c **** 		div =  div/10;
 255              		.loc 1 144 0 discriminator 2
 256 0030 BB69     		ldr	r3, [r7, #24]
 257 0032 181C     		mov	r0, r3
 258 0034 0A21     		mov	r1, #10
 259 0036 FFF7FEFF 		bl	__aeabi_idiv
 260 003a 031C     		mov	r3, r0
 261 003c BB61     		str	r3, [r7, #24]
 141:../Sources/main.c **** 	for(i = 9; i >= 0; i--)
 262              		.loc 1 141 0 discriminator 2
 263 003e FB69     		ldr	r3, [r7, #28]
 264 0040 013B     		sub	r3, r3, #1
 265 0042 FB61     		str	r3, [r7, #28]
 266              	.L11:
 141:../Sources/main.c **** 	for(i = 9; i >= 0; i--)
 267              		.loc 1 141 0 is_stmt 0 discriminator 1
 268 0044 FB69     		ldr	r3, [r7, #28]
 269 0046 002B     		cmp	r3, #0
 270 0048 E3DA     		bge	.L12
 145:../Sources/main.c **** 	}
 146:../Sources/main.c **** 
 147:../Sources/main.c **** 	lcd_sendCommand(CMD_CLEAR);
 271              		.loc 1 147 0 is_stmt 1
 272 004a 0120     		mov	r0, #1
 273 004c FFF7FEFF 		bl	lcd_sendCommand
 148:../Sources/main.c **** 	lcd_writeString(cOverflow);
 274              		.loc 1 148 0
 275 0050 3B1C     		mov	r3, r7
 276 0052 0C33     		add	r3, r3, #12
 277 0054 181C     		mov	r0, r3
 278 0056 FFF7FEFF 		bl	lcd_writeString
 149:../Sources/main.c **** 	lcd_setCursor(1,0);
 279              		.loc 1 149 0
 280 005a 0120     		mov	r0, #1
 281 005c 0021     		mov	r1, #0
 282 005e FFF7FEFF 		bl	lcd_setCursor
 150:../Sources/main.c **** 
 151:../Sources/main.c **** }
 283              		.loc 1 151 0
 284 0062 BD46     		mov	sp, r7
 285 0064 08B0     		add	sp, sp, #32
 286              		@ sp needed
 287 0066 80BD     		pop	{r7, pc}
 288              		.cfi_endproc
 289              	.LFE149:
 291              		.section	.text.init_search,"ax",%progbits
 292              		.align	2
 293              		.global	init_search
 294              		.code	16
 295              		.thumb_func
 297              	init_search:
 298              	.LFB150:
 152:../Sources/main.c **** /*
 153:../Sources/main.c **** **  Call this with the string to locate to initialize the table
 154:../Sources/main.c **** */
 155:../Sources/main.c **** 
 156:../Sources/main.c **** void init_search(const char *string)
 157:../Sources/main.c **** {
 299              		.loc 1 157 0
 300              		.cfi_startproc
 301 0000 80B5     		push	{r7, lr}
 302              		.cfi_def_cfa_offset 8
 303              		.cfi_offset 7, -8
 304              		.cfi_offset 14, -4
 305 0002 84B0     		sub	sp, sp, #16
 306              		.cfi_def_cfa_offset 24
 307 0004 00AF     		add	r7, sp, #0
 308              		.cfi_def_cfa_register 7
 309 0006 7860     		str	r0, [r7, #4]
 158:../Sources/main.c ****       size_t i;
 159:../Sources/main.c **** 
 160:../Sources/main.c ****       len = strlen(string);
 310              		.loc 1 160 0
 311 0008 7B68     		ldr	r3, [r7, #4]
 312 000a 181C     		mov	r0, r3
 313 000c FFF7FEFF 		bl	strlen
 314 0010 021C     		mov	r2, r0
 315 0012 184B     		ldr	r3, .L18
 316 0014 1A60     		str	r2, [r3]
 161:../Sources/main.c ****       for (i = 0; i <= UCHAR_MAX; i++)                      /* rdg 10/93 */
 317              		.loc 1 161 0
 318 0016 0023     		mov	r3, #0
 319 0018 FB60     		str	r3, [r7, #12]
 320 001a 08E0     		b	.L14
 321              	.L15:
 162:../Sources/main.c ****             table[i] = len;
 322              		.loc 1 162 0 discriminator 2
 323 001c 154B     		ldr	r3, .L18
 324 001e 1968     		ldr	r1, [r3]
 325 0020 154B     		ldr	r3, .L18+4
 326 0022 FA68     		ldr	r2, [r7, #12]
 327 0024 9200     		lsl	r2, r2, #2
 328 0026 D150     		str	r1, [r2, r3]
 161:../Sources/main.c ****       for (i = 0; i <= UCHAR_MAX; i++)                      /* rdg 10/93 */
 329              		.loc 1 161 0 discriminator 2
 330 0028 FB68     		ldr	r3, [r7, #12]
 331 002a 0133     		add	r3, r3, #1
 332 002c FB60     		str	r3, [r7, #12]
 333              	.L14:
 161:../Sources/main.c ****       for (i = 0; i <= UCHAR_MAX; i++)                      /* rdg 10/93 */
 334              		.loc 1 161 0 is_stmt 0 discriminator 1
 335 002e FB68     		ldr	r3, [r7, #12]
 336 0030 FF2B     		cmp	r3, #255
 337 0032 F3D9     		bls	.L15
 163:../Sources/main.c ****       for (i = 0; i < len; i++)
 338              		.loc 1 163 0 is_stmt 1
 339 0034 0023     		mov	r3, #0
 340 0036 FB60     		str	r3, [r7, #12]
 341 0038 10E0     		b	.L16
 342              	.L17:
 164:../Sources/main.c ****             table[(unsigned char)string[i]] = len - i - 1;
 343              		.loc 1 164 0 discriminator 2
 344 003a 7A68     		ldr	r2, [r7, #4]
 345 003c FB68     		ldr	r3, [r7, #12]
 346 003e D318     		add	r3, r2, r3
 347 0040 1B78     		ldrb	r3, [r3]
 348 0042 DBB2     		uxtb	r3, r3
 349 0044 1A1C     		mov	r2, r3
 350 0046 0B4B     		ldr	r3, .L18
 351 0048 1968     		ldr	r1, [r3]
 352 004a FB68     		ldr	r3, [r7, #12]
 353 004c CB1A     		sub	r3, r1, r3
 354 004e 591E     		sub	r1, r3, #1
 355 0050 094B     		ldr	r3, .L18+4
 356 0052 9200     		lsl	r2, r2, #2
 357 0054 D150     		str	r1, [r2, r3]
 163:../Sources/main.c ****       for (i = 0; i < len; i++)
 358              		.loc 1 163 0 discriminator 2
 359 0056 FB68     		ldr	r3, [r7, #12]
 360 0058 0133     		add	r3, r3, #1
 361 005a FB60     		str	r3, [r7, #12]
 362              	.L16:
 163:../Sources/main.c ****       for (i = 0; i < len; i++)
 363              		.loc 1 163 0 is_stmt 0 discriminator 1
 364 005c 054B     		ldr	r3, .L18
 365 005e 1B68     		ldr	r3, [r3]
 366 0060 FA68     		ldr	r2, [r7, #12]
 367 0062 9A42     		cmp	r2, r3
 368 0064 E9D3     		bcc	.L17
 165:../Sources/main.c ****       findme = (char *)string;
 369              		.loc 1 165 0 is_stmt 1
 370 0066 054B     		ldr	r3, .L18+8
 371 0068 7A68     		ldr	r2, [r7, #4]
 372 006a 1A60     		str	r2, [r3]
 166:../Sources/main.c **** }
 373              		.loc 1 166 0
 374 006c BD46     		mov	sp, r7
 375 006e 04B0     		add	sp, sp, #16
 376              		@ sp needed
 377 0070 80BD     		pop	{r7, pc}
 378              	.L19:
 379 0072 C046     		.align	2
 380              	.L18:
 381 0074 00000000 		.word	len
 382 0078 00000000 		.word	table
 383 007c 00000000 		.word	findme
 384              		.cfi_endproc
 385              	.LFE150:
 387              		.section	.text.strsearch,"ax",%progbits
 388              		.align	2
 389              		.global	strsearch
 390              		.code	16
 391              		.thumb_func
 393              	strsearch:
 394              	.LFB151:
 167:../Sources/main.c **** 
 168:../Sources/main.c **** char *strsearch(const char *string)
 169:../Sources/main.c **** {
 395              		.loc 1 169 0
 396              		.cfi_startproc
 397 0000 B0B5     		push	{r4, r5, r7, lr}
 398              		.cfi_def_cfa_offset 16
 399              		.cfi_offset 4, -16
 400              		.cfi_offset 5, -12
 401              		.cfi_offset 7, -8
 402              		.cfi_offset 14, -4
 403 0002 84B0     		sub	sp, sp, #16
 404              		.cfi_def_cfa_offset 32
 405 0004 00AF     		add	r7, sp, #0
 406              		.cfi_def_cfa_register 7
 407 0006 7860     		str	r0, [r7, #4]
 170:../Sources/main.c ****       register size_t shift;
 171:../Sources/main.c ****       register size_t pos = len - 1;
 408              		.loc 1 171 0
 409 0008 1C4B     		ldr	r3, .L28
 410 000a 1B68     		ldr	r3, [r3]
 411 000c 5C1E     		sub	r4, r3, #1
 172:../Sources/main.c ****       char *here;
 173:../Sources/main.c ****       size_t limit=strlen(string);
 412              		.loc 1 173 0
 413 000e 7B68     		ldr	r3, [r7, #4]
 414 0010 181C     		mov	r0, r3
 415 0012 FFF7FEFF 		bl	strlen
 416 0016 031C     		mov	r3, r0
 417 0018 FB60     		str	r3, [r7, #12]
 174:../Sources/main.c **** 
 175:../Sources/main.c ****       while (pos < limit)
 418              		.loc 1 175 0
 419 001a 27E0     		b	.L21
 420              	.L27:
 176:../Sources/main.c ****       {
 177:../Sources/main.c ****             while( pos < limit &&
 421              		.loc 1 177 0
 422 001c 00E0     		b	.L22
 423              	.L24:
 178:../Sources/main.c ****                   (shift = table[(unsigned char)string[pos]]) > 0)
 179:../Sources/main.c ****             {
 180:../Sources/main.c ****                   pos += shift;
 424              		.loc 1 180 0
 425 001e 6419     		add	r4, r4, r5
 426              	.L22:
 177:../Sources/main.c ****             while( pos < limit &&
 427              		.loc 1 177 0 discriminator 1
 428 0020 FB68     		ldr	r3, [r7, #12]
 429 0022 9C42     		cmp	r4, r3
 430 0024 09D2     		bcs	.L23
 178:../Sources/main.c ****                   (shift = table[(unsigned char)string[pos]]) > 0)
 431              		.loc 1 178 0 discriminator 2
 432 0026 7B68     		ldr	r3, [r7, #4]
 433 0028 1B19     		add	r3, r3, r4
 434 002a 1B78     		ldrb	r3, [r3]
 435 002c DBB2     		uxtb	r3, r3
 436 002e 1A1C     		mov	r2, r3
 437 0030 134B     		ldr	r3, .L28+4
 438 0032 9200     		lsl	r2, r2, #2
 439 0034 D558     		ldr	r5, [r2, r3]
 177:../Sources/main.c ****             while( pos < limit &&
 440              		.loc 1 177 0 discriminator 2
 441 0036 002D     		cmp	r5, #0
 442 0038 F1D1     		bne	.L24
 443              	.L23:
 181:../Sources/main.c ****             }
 182:../Sources/main.c ****             if (0 == shift)
 444              		.loc 1 182 0
 445 003a 002D     		cmp	r5, #0
 446 003c 16D1     		bne	.L21
 183:../Sources/main.c ****             {
 184:../Sources/main.c ****                   if (0 == strncmp(findme,
 447              		.loc 1 184 0
 448 003e 114B     		ldr	r3, .L28+8
 449 0040 1968     		ldr	r1, [r3]
 185:../Sources/main.c ****                         here = (char *)&string[pos-len+1], len))
 450              		.loc 1 185 0
 451 0042 0E4B     		ldr	r3, .L28
 452 0044 1B68     		ldr	r3, [r3]
 453 0046 E31A     		sub	r3, r4, r3
 454 0048 0133     		add	r3, r3, #1
 455 004a 7A68     		ldr	r2, [r7, #4]
 456 004c D318     		add	r3, r2, r3
 457 004e BB60     		str	r3, [r7, #8]
 184:../Sources/main.c ****                   if (0 == strncmp(findme,
 458              		.loc 1 184 0
 459 0050 0A4B     		ldr	r3, .L28
 460 0052 1B68     		ldr	r3, [r3]
 461 0054 BA68     		ldr	r2, [r7, #8]
 462 0056 081C     		mov	r0, r1
 463 0058 111C     		mov	r1, r2
 464 005a 1A1C     		mov	r2, r3
 465 005c FFF7FEFF 		bl	strncmp
 466 0060 031C     		mov	r3, r0
 467 0062 002B     		cmp	r3, #0
 468 0064 01D1     		bne	.L25
 186:../Sources/main.c ****                   {
 187:../Sources/main.c ****                         return(here);
 469              		.loc 1 187 0
 470 0066 BB68     		ldr	r3, [r7, #8]
 471 0068 04E0     		b	.L26
 472              	.L25:
 188:../Sources/main.c ****                   }
 189:../Sources/main.c ****                   else  pos++;
 473              		.loc 1 189 0
 474 006a 0134     		add	r4, r4, #1
 475              	.L21:
 175:../Sources/main.c ****       while (pos < limit)
 476              		.loc 1 175 0 discriminator 1
 477 006c FB68     		ldr	r3, [r7, #12]
 478 006e 9C42     		cmp	r4, r3
 479 0070 D4D3     		bcc	.L27
 190:../Sources/main.c ****             }
 191:../Sources/main.c ****       }
 192:../Sources/main.c ****       return NULL;
 480              		.loc 1 192 0
 481 0072 0023     		mov	r3, #0
 482              	.L26:
 193:../Sources/main.c **** }
 483              		.loc 1 193 0
 484 0074 181C     		mov	r0, r3
 485 0076 BD46     		mov	sp, r7
 486 0078 04B0     		add	sp, sp, #16
 487              		@ sp needed
 488 007a B0BD     		pop	{r4, r5, r7, pc}
 489              	.L29:
 490              		.align	2
 491              	.L28:
 492 007c 00000000 		.word	len
 493 0080 00000000 		.word	table
 494 0084 00000000 		.word	findme
 495              		.cfi_endproc
 496              	.LFE151:
 498              		.section	.rodata
 499 0029 000000   		.align	2
 500              	.LC125:
 501 002c 00       		.ascii	"\000"
 502 002d 000000   		.align	2
 503              	.LC127:
 504 0030 206E6F74 		.ascii	" not\000"
 504      00
 505 0035 000000   		.align	2
 506              	.LC129:
 507 0038 22257322 		.ascii	"\"%s\" is%s in \"%s\"\000"
 507      20697325 
 507      7320696E 
 507      20222573 
 507      2200
 508 004a 0000     		.align	2
 509              	.LC131:
 510 004c 205B2225 		.ascii	" [\"%s\"]\012\000"
 510      73225D0A 
 510      00
 511 0055 000000   		.align	2
 512              	.LC134:
 513 0058 4F766572 		.ascii	"Overflows: %d \015\012\000"
 513      666C6F77 
 513      733A2025 
 513      64200D0A 
 513      00
 514 0069 000000   		.align	2
 515              	.LC136:
 516 006c 43757272 		.ascii	"Current datetime: %04hd-%02hd-%02hd %02hd:%02hd:%02"
 516      656E7420 
 516      64617465 
 516      74696D65 
 516      3A202530 
 517 009f 68640D0A 		.ascii	"hd\015\012\000"
 517      00
 518              		.align	2
 519              	.LC0:
 520 00a4 61626200 		.ascii	"abb\000"
 521              		.align	2
 522              	.LC1:
 523 00a8 796F7500 		.ascii	"you\000"
 524              		.align	2
 525              	.LC2:
 526 00ac 6E6F7400 		.ascii	"not\000"
 527              		.align	2
 528              	.LC3:
 529 00b0 697400   		.ascii	"it\000"
 530 00b3 00       		.align	2
 531              	.LC4:
 532 00b4 64616400 		.ascii	"dad\000"
 533              		.align	2
 534              	.LC5:
 535 00b8 796F6F00 		.ascii	"yoo\000"
 536              		.align	2
 537              	.LC6:
 538 00bc 686F6F00 		.ascii	"hoo\000"
 539              		.align	2
 540              	.LC7:
 541 00c0 6F6F00   		.ascii	"oo\000"
 542 00c3 00       		.align	2
 543              	.LC8:
 544 00c4 6F6800   		.ascii	"oh\000"
 545 00c7 00       		.align	2
 546              	.LC9:
 547 00c8 787800   		.ascii	"xx\000"
 548 00cb 00       		.align	2
 549              	.LC10:
 550 00cc 7800     		.ascii	"x\000"
 551 00ce 0000     		.align	2
 552              	.LC11:
 553 00d0 6669656C 		.ascii	"field\000"
 553      6400
 554 00d6 0000     		.align	2
 555              	.LC12:
 556 00d8 6E657700 		.ascii	"new\000"
 557              		.align	2
 558              	.LC13:
 559 00dc 726F7700 		.ascii	"row\000"
 560              		.align	2
 561              	.LC14:
 562 00e0 72656769 		.ascii	"regime\000"
 562      6D6500
 563 00e7 00       		.align	2
 564              	.LC15:
 565 00e8 626F6F6D 		.ascii	"boom\000"
 565      00
 566 00ed 000000   		.align	2
 567              	.LC16:
 568 00f0 74686174 		.ascii	"that\000"
 568      00
 569 00f5 000000   		.align	2
 570              	.LC17:
 571 00f8 696D7061 		.ascii	"impact\000"
 571      637400
 572 00ff 00       		.align	2
 573              	.LC18:
 574 0100 616E6400 		.ascii	"and\000"
 575              		.align	2
 576              	.LC19:
 577 0104 7A6F6F6D 		.ascii	"zoom\000"
 577      00
 578 0109 000000   		.align	2
 579              	.LC20:
 580 010c 74657874 		.ascii	"texture\000"
 580      75726500 
 581              		.align	2
 582              	.LC21:
 583 0114 6D61676E 		.ascii	"magnet\000"
 583      657400
 584 011b 00       		.align	2
 585              	.LC22:
 586 011c 646F6F6D 		.ascii	"doom\000"
 586      00
 587 0121 000000   		.align	2
 588              	.LC23:
 589 0124 6C6F6F6D 		.ascii	"loom\000"
 589      00
 590 0129 000000   		.align	2
 591              	.LC24:
 592 012c 66726571 		.ascii	"freq\000"
 592      00
 593 0131 000000   		.align	2
 594              	.LC25:
 595 0134 63757272 		.ascii	"current\000"
 595      656E7400 
 596              		.align	2
 597              	.LC26:
 598 013c 70686173 		.ascii	"phase\000"
 598      6500
 599 0142 0000     		.align	2
 600              	.LC27:
 601 0144 696D6167 		.ascii	"images\000"
 601      657300
 602 014b 00       		.align	2
 603              	.LC28:
 604 014c 61707065 		.ascii	"appears\000"
 604      61727300 
 605              		.align	2
 606              	.LC29:
 607 0154 636F6E64 		.ascii	"conductor\000"
 607      7563746F 
 607      7200
 608 015e 0000     		.align	2
 609              	.LC30:
 610 0160 77617665 		.ascii	"wavez\000"
 610      7A00
 611 0166 0000     		.align	2
 612              	.LC31:
 613 0168 6E6F726D 		.ascii	"normal\000"
 613      616C00
 614 016f 00       		.align	2
 615              	.LC32:
 616 0170 66726565 		.ascii	"free\000"
 616      00
 617 0175 000000   		.align	2
 618              	.LC33:
 619 0178 7465726D 		.ascii	"termed\000"
 619      656400
 620 017f 00       		.align	2
 621              	.LC34:
 622 0180 70726F76 		.ascii	"provide\000"
 622      69646500 
 623              		.align	2
 624              	.LC35:
 625 0188 666F7200 		.ascii	"for\000"
 626              		.align	2
 627              	.LC36:
 628 018c 73747275 		.ascii	"struct\000"
 628      637400
 629 0193 00       		.align	2
 630              	.LC37:
 631 0194 61626F75 		.ascii	"about\000"
 631      7400
 632 019a 0000     		.align	2
 633              	.LC38:
 634 019c 68617665 		.ascii	"have\000"
 634      00
 635 01a1 000000   		.align	2
 636              	.LC39:
 637 01a4 70726F70 		.ascii	"proper\000"
 637      657200
 638 01ab 00       		.align	2
 639              	.LC40:
 640 01ac 696E766F 		.ascii	"involve\000"
 640      6C766500 
 641              		.align	2
 642              	.LC41:
 643 01b4 64657363 		.ascii	"describedly\000"
 643      72696265 
 643      646C7900 
 644              		.align	2
 645              	.LC42:
 646 01c0 74686174 		.ascii	"thats\000"
 646      7300
 647 01c6 0000     		.align	2
 648              	.LC43:
 649 01c8 73706163 		.ascii	"spaces\000"
 649      657300
 650 01cf 00       		.align	2
 651              	.LC44:
 652 01d0 63697263 		.ascii	"circumstance\000"
 652      756D7374 
 652      616E6365 
 652      00
 653 01dd 000000   		.align	2
 654              	.LC45:
 655 01e0 74686500 		.ascii	"the\000"
 656              		.align	2
 657              	.LC46:
 658 01e4 6D656D62 		.ascii	"member\000"
 658      657200
 659 01eb 00       		.align	2
 660              	.LC47:
 661 01ec 73756368 		.ascii	"such\000"
 661      00
 662 01f1 000000   		.align	2
 663              	.LC48:
 664 01f4 67756964 		.ascii	"guide\000"
 664      6500
 665 01fa 0000     		.align	2
 666              	.LC49:
 667 01fc 72656761 		.ascii	"regard\000"
 667      726400
 668 0203 00       		.align	2
 669              	.LC50:
 670 0204 6F666669 		.ascii	"officers\000"
 670      63657273 
 670      00
 671 020d 000000   		.align	2
 672              	.LC51:
 673 0210 696D706C 		.ascii	"implement\000"
 673      656D656E 
 673      7400
 674 021a 0000     		.align	2
 675              	.LC52:
 676 021c 7072696E 		.ascii	"principalities\000"
 676      63697061 
 676      6C697469 
 676      657300
 677 022b 00       		.align	2
 678              	.LC121:
 679 022c A4000000 		.word	.LC0
 680 0230 A8000000 		.word	.LC1
 681 0234 AC000000 		.word	.LC2
 682 0238 B0000000 		.word	.LC3
 683 023c B4000000 		.word	.LC4
 684 0240 B8000000 		.word	.LC5
 685 0244 BC000000 		.word	.LC6
 686 0248 C0000000 		.word	.LC7
 687 024c C4000000 		.word	.LC8
 688 0250 C8000000 		.word	.LC9
 689 0254 C8000000 		.word	.LC9
 690 0258 CC000000 		.word	.LC10
 691 025c CC000000 		.word	.LC10
 692 0260 D0000000 		.word	.LC11
 693 0264 D8000000 		.word	.LC12
 694 0268 DC000000 		.word	.LC13
 695 026c E0000000 		.word	.LC14
 696 0270 E8000000 		.word	.LC15
 697 0274 F0000000 		.word	.LC16
 698 0278 F8000000 		.word	.LC17
 699 027c 00010000 		.word	.LC18
 700 0280 04010000 		.word	.LC19
 701 0284 0C010000 		.word	.LC20
 702 0288 14010000 		.word	.LC21
 703 028c 1C010000 		.word	.LC22
 704 0290 24010000 		.word	.LC23
 705 0294 2C010000 		.word	.LC24
 706 0298 34010000 		.word	.LC25
 707 029c 3C010000 		.word	.LC26
 708 02a0 44010000 		.word	.LC27
 709 02a4 4C010000 		.word	.LC28
 710 02a8 3C010000 		.word	.LC26
 711 02ac 54010000 		.word	.LC29
 712 02b0 60010000 		.word	.LC30
 713 02b4 68010000 		.word	.LC31
 714 02b8 70010000 		.word	.LC32
 715 02bc 78010000 		.word	.LC33
 716 02c0 80010000 		.word	.LC34
 717 02c4 88010000 		.word	.LC35
 718 02c8 00010000 		.word	.LC18
 719 02cc 8C010000 		.word	.LC36
 720 02d0 94010000 		.word	.LC37
 721 02d4 9C010000 		.word	.LC38
 722 02d8 A4010000 		.word	.LC39
 723 02dc AC010000 		.word	.LC40
 724 02e0 B4010000 		.word	.LC41
 725 02e4 C0010000 		.word	.LC42
 726 02e8 C8010000 		.word	.LC43
 727 02ec D0010000 		.word	.LC44
 728 02f0 E0010000 		.word	.LC45
 729 02f4 E4010000 		.word	.LC46
 730 02f8 EC010000 		.word	.LC47
 731 02fc F4010000 		.word	.LC48
 732 0300 FC010000 		.word	.LC49
 733 0304 04020000 		.word	.LC50
 734 0308 10020000 		.word	.LC51
 735 030c 1C020000 		.word	.LC52
 736 0310 00000000 		.word	0
 737              		.align	2
 738              	.LC54:
 739 0314 63616262 		.ascii	"cabbie\000"
 739      696500
 740 031b 00       		.align	2
 741              	.LC55:
 742 031c 796F7572 		.ascii	"your\000"
 742      00
 743 0321 000000   		.align	2
 744              	.LC56:
 745 0324 49742069 		.ascii	"It isn't here\000"
 745      736E2774 
 745      20686572 
 745      6500
 746 0332 0000     		.align	2
 747              	.LC57:
 748 0334 42757420 		.ascii	"But it is here\000"
 748      69742069 
 748      73206865 
 748      726500
 749 0343 00       		.align	2
 750              	.LC58:
 751 0344 686F6461 		.ascii	"hodad\000"
 751      6400
 752 034a 0000     		.align	2
 753              	.LC59:
 754 034c 796F6F68 		.ascii	"yoohoo\000"
 754      6F6F00
 755 0353 00       		.align	2
 756              	.LC60:
 757 0354 2E00     		.ascii	".\000"
 758 0356 0000     		.align	2
 759              	.LC61:
 760 0358 496E2072 		.ascii	"In recent years, the field of photonic \000"
 760      6563656E 
 760      74207965 
 760      6172732C 
 760      20746865 
 761              		.align	2
 762              	.LC62:
 763 0380 63727973 		.ascii	"crystals has found new\000"
 763      74616C73 
 763      20686173 
 763      20666F75 
 763      6E64206E 
 764 0397 00       		.align	2
 765              	.LC63:
 766 0398 6170706C 		.ascii	"applications in the RF and microwave\000"
 766      69636174 
 766      696F6E73 
 766      20696E20 
 766      74686520 
 767 03bd 000000   		.align	2
 768              	.LC64:
 769 03c0 72656769 		.ascii	"regime. A new type of metallic\000"
 769      6D652E20 
 769      41206E65 
 769      77207479 
 769      7065206F 
 770 03df 00       		.align	2
 771              	.LC65:
 772 03e0 656C6563 		.ascii	"electromagnetic crystal has been\000"
 772      74726F6D 
 772      61676E65 
 772      74696320 
 772      63727973 
 773 0401 000000   		.align	2
 774              	.LC66:
 775 0404 64657665 		.ascii	"developed that is having a\000"
 775      6C6F7065 
 775      64207468 
 775      61742069 
 775      73206861 
 776 041f 00       		.align	2
 777              	.LC67:
 778 0420 7369676E 		.ascii	"significant impact on the field of\000"
 778      69666963 
 778      616E7420 
 778      696D7061 
 778      6374206F 
 779 0443 00       		.align	2
 780              	.LC68:
 781 0444 616E7465 		.ascii	"antennas. It consists of a\000"
 781      6E6E6173 
 781      2E204974 
 781      20636F6E 
 781      73697374 
 782 045f 00       		.align	2
 783              	.LC69:
 784 0460 636F6E64 		.ascii	"conductive surface, covered with a\000"
 784      75637469 
 784      76652073 
 784      75726661 
 784      63652C20 
 785 0483 00       		.align	2
 786              	.LC70:
 787 0484 73706563 		.ascii	"special texture which alters its\000"
 787      69616C20 
 787      74657874 
 787      75726520 
 787      77686963 
 788 04a5 000000   		.align	2
 789              	.LC71:
 790 04a8 656C6563 		.ascii	"electromagnetic properties. Made of solid\000"
 790      74726F6D 
 790      61676E65 
 790      74696320 
 790      70726F70 
 791 04d2 0000     		.align	2
 792              	.LC72:
 793 04d4 6D657461 		.ascii	"metal, the structure\000"
 793      6C2C2074 
 793      68652073 
 793      74727563 
 793      74757265 
 794 04e9 000000   		.align	2
 795              	.LC73:
 796 04ec 636F6E64 		.ascii	"conducts DC currents, but over a\000"
 796      75637473 
 796      20444320 
 796      63757272 
 796      656E7473 
 797 050d 000000   		.align	2
 798              	.LC74:
 799 0510 70617274 		.ascii	"particular frequency range it does\000"
 799      6963756C 
 799      61722066 
 799      72657175 
 799      656E6379 
 800 0533 00       		.align	2
 801              	.LC75:
 802 0534 6E6F7420 		.ascii	"not conduct AC currents. It does not\000"
 802      636F6E64 
 802      75637420 
 802      41432063 
 802      75727265 
 803 0559 000000   		.align	2
 804              	.LC76:
 805 055c 72657665 		.ascii	"reverse the phase of reflected\000"
 805      72736520 
 805      74686520 
 805      70686173 
 805      65206F66 
 806 057b 00       		.align	2
 807              	.LC77:
 808 057c 77617665 		.ascii	"waves, and the effective image currents\000"
 808      732C2061 
 808      6E642074 
 808      68652065 
 808      66666563 
 809              		.align	2
 810              	.LC78:
 811 05a4 61707065 		.ascii	"appear in-phase, rather than\000"
 811      61722069 
 811      6E2D7068 
 811      6173652C 
 811      20726174 
 812 05c1 000000   		.align	2
 813              	.LC79:
 814 05c4 6F75742D 		.ascii	"out-of-phase as they are on normal\000"
 814      6F662D70 
 814      68617365 
 814      20617320 
 814      74686579 
 815 05e7 00       		.align	2
 816              	.LC80:
 817 05e8 636F6E64 		.ascii	"conductors. Furthermore, surface\000"
 817      7563746F 
 817      72732E20 
 817      46757274 
 817      6865726D 
 818 0609 000000   		.align	2
 819              	.LC81:
 820 060c 77617665 		.ascii	"waves do not propagate, and instead\000"
 820      7320646F 
 820      206E6F74 
 820      2070726F 
 820      70616761 
 821              		.align	2
 822              	.LC82:
 823 0630 72616469 		.ascii	"radiate efficiently into free\000"
 823      61746520 
 823      65666669 
 823      6369656E 
 823      746C7920 
 824 064e 0000     		.align	2
 825              	.LC83:
 826 0650 73706163 		.ascii	"space. This new material, termed a\000"
 826      652E2054 
 826      68697320 
 826      6E657720 
 826      6D617465 
 827 0673 00       		.align	2
 828              	.LC84:
 829 0674 68696768 		.ascii	"high-impedance surface, provides\000"
 829      2D696D70 
 829      6564616E 
 829      63652073 
 829      75726661 
 830 0695 000000   		.align	2
 831              	.LC85:
 832 0698 61207573 		.ascii	"a useful new ground plane for novel\000"
 832      6566756C 
 832      206E6577 
 832      2067726F 
 832      756E6420 
 833              		.align	2
 834              	.LC86:
 835 06bc 6C6F772D 		.ascii	"low-profile antennas and other\000"
 835      70726F66 
 835      696C6520 
 835      616E7465 
 835      6E6E6173 
 836 06db 00       		.align	2
 837              	.LC87:
 838 06dc 656C6563 		.ascii	"electromagnetic structures.\000"
 838      74726F6D 
 838      61676E65 
 838      74696320 
 838      73747275 
 839              		.align	2
 840              	.LC88:
 841 06f8 54686520 		.ascii	"The recent protests about the Michigamua\000"
 841      72656365 
 841      6E742070 
 841      726F7465 
 841      73747320 
 842 0721 000000   		.align	2
 843              	.LC89:
 844 0724 73747564 		.ascii	"student organization have raised an\000"
 844      656E7420 
 844      6F726761 
 844      6E697A61 
 844      74696F6E 
 845              		.align	2
 846              	.LC90:
 847 0748 696D706F 		.ascii	"important question as to the proper nature\000"
 847      7274616E 
 847      74207175 
 847      65737469 
 847      6F6E2061 
 848 0773 00       		.align	2
 849              	.LC91:
 850 0774 616E6420 		.ascii	"and scope of University involvement\000"
 850      73636F70 
 850      65206F66 
 850      20556E69 
 850      76657273 
 851              		.align	2
 852              	.LC92:
 853 0798 77697468 		.ascii	"with student organizations. Accordingly\000"
 853      20737475 
 853      64656E74 
 853      206F7267 
 853      616E697A 
 854              		.align	2
 855              	.LC93:
 856 07c0 74686520 		.ascii	"the panel described in my Statement of\000"
 856      70616E65 
 856      6C206465 
 856      73637269 
 856      62656420 
 857 07e7 00       		.align	2
 858              	.LC94:
 859 07e8 46656272 		.ascii	"February 25, 2000 that is considering the\000"
 859      75617279 
 859      2032352C 
 859      20323030 
 859      30207468 
 860 0812 0000     		.align	2
 861              	.LC95:
 862 0814 71756573 		.ascii	"question of privileged space also will\000"
 862      74696F6E 
 862      206F6620 
 862      70726976 
 862      696C6567 
 863 083b 00       		.align	2
 864              	.LC96:
 865 083c 636F6E73 		.ascii	"consider under what circumstances and in\000"
 865      69646572 
 865      20756E64 
 865      65722077 
 865      68617420 
 866 0865 000000   		.align	2
 867              	.LC97:
 868 0868 77686174 		.ascii	"what ways the University, its\000"
 868      20776179 
 868      73207468 
 868      6520556E 
 868      69766572 
 869 0886 0000     		.align	2
 870              	.LC98:
 871 0888 61646D69 		.ascii	"administrators and faculty members should\000"
 871      6E697374 
 871      7261746F 
 871      72732061 
 871      6E642066 
 872 08b2 0000     		.align	2
 873              	.LC99:
 874 08b4 62652061 		.ascii	"be associated with such organizations\000"
 874      73736F63 
 874      69617465 
 874      64207769 
 874      74682073 
 875 08da 0000     		.align	2
 876              	.LC100:
 877 08dc 616E6420 		.ascii	"and it will recommend guiding principles\000"
 877      69742077 
 877      696C6C20 
 877      7265636F 
 877      6D6D656E 
 878 0905 000000   		.align	2
 879              	.LC101:
 880 0908 696E2074 		.ascii	"in this regard. The University's\000"
 880      68697320 
 880      72656761 
 880      72642E20 
 880      54686520 
 881 0929 000000   		.align	2
 882              	.LC102:
 883 092c 45786563 		.ascii	"Executive Officers and I will then decide\000"
 883      75746976 
 883      65204F66 
 883      66696365 
 883      72732061 
 884 0956 0000     		.align	2
 885              	.LC103:
 886 0958 77686574 		.ascii	"whether and how to implement such\000"
 886      68657220 
 886      616E6420 
 886      686F7720 
 886      746F2069 
 887 097a 0000     		.align	2
 888              	.LC104:
 889 097c 7072696E 		.ascii	"principles.\000"
 889      6369706C 
 889      65732E00 
 890              		.align	2
 891              	.LC123:
 892 0988 14030000 		.word	.LC54
 893 098c 1C030000 		.word	.LC55
 894 0990 24030000 		.word	.LC56
 895 0994 34030000 		.word	.LC57
 896 0998 44030000 		.word	.LC58
 897 099c 4C030000 		.word	.LC59
 898 09a0 4C030000 		.word	.LC59
 899 09a4 4C030000 		.word	.LC59
 900 09a8 4C030000 		.word	.LC59
 901 09ac 4C030000 		.word	.LC59
 902 09b0 C8000000 		.word	.LC9
 903 09b4 CC000000 		.word	.LC10
 904 09b8 54030000 		.word	.LC60
 905 09bc 58030000 		.word	.LC61
 906 09c0 80030000 		.word	.LC62
 907 09c4 98030000 		.word	.LC63
 908 09c8 C0030000 		.word	.LC64
 909 09cc E0030000 		.word	.LC65
 910 09d0 04040000 		.word	.LC66
 911 09d4 20040000 		.word	.LC67
 912 09d8 44040000 		.word	.LC68
 913 09dc 60040000 		.word	.LC69
 914 09e0 84040000 		.word	.LC70
 915 09e4 A8040000 		.word	.LC71
 916 09e8 D4040000 		.word	.LC72
 917 09ec EC040000 		.word	.LC73
 918 09f0 10050000 		.word	.LC74
 919 09f4 34050000 		.word	.LC75
 920 09f8 5C050000 		.word	.LC76
 921 09fc 7C050000 		.word	.LC77
 922 0a00 A4050000 		.word	.LC78
 923 0a04 C4050000 		.word	.LC79
 924 0a08 E8050000 		.word	.LC80
 925 0a0c 0C060000 		.word	.LC81
 926 0a10 30060000 		.word	.LC82
 927 0a14 50060000 		.word	.LC83
 928 0a18 74060000 		.word	.LC84
 929 0a1c 98060000 		.word	.LC85
 930 0a20 BC060000 		.word	.LC86
 931 0a24 DC060000 		.word	.LC87
 932 0a28 F8060000 		.word	.LC88
 933 0a2c 24070000 		.word	.LC89
 934 0a30 48070000 		.word	.LC90
 935 0a34 74070000 		.word	.LC91
 936 0a38 98070000 		.word	.LC92
 937 0a3c C0070000 		.word	.LC93
 938 0a40 E8070000 		.word	.LC94
 939 0a44 14080000 		.word	.LC95
 940 0a48 3C080000 		.word	.LC96
 941 0a4c 68080000 		.word	.LC97
 942 0a50 88080000 		.word	.LC98
 943 0a54 B4080000 		.word	.LC99
 944 0a58 DC080000 		.word	.LC100
 945 0a5c 08090000 		.word	.LC101
 946 0a60 2C090000 		.word	.LC102
 947 0a64 58090000 		.word	.LC103
 948 0a68 7C090000 		.word	.LC104
 949              		.section	.text.main,"ax",%progbits
 950              		.align	2
 951              		.global	main
 952              		.code	16
 953              		.thumb_func
 955              	main:
 956              	.LFB152:
 194:../Sources/main.c **** 
 195:../Sources/main.c **** /*!
 196:../Sources/main.c ****  * @brief Use FTM in PWM mode
 197:../Sources/main.c ****  *
 198:../Sources/main.c ****  * This function use PWM to control brightness of a LED.
 199:../Sources/main.c ****  * LED is brighter and then dimmer, continuously.
 200:../Sources/main.c ****  */
 201:../Sources/main.c **** int main(void)
 202:../Sources/main.c **** {
 957              		.loc 1 202 0
 958              		.cfi_startproc
 959 0000 F0B5     		push	{r4, r5, r6, r7, lr}
 960              		.cfi_def_cfa_offset 20
 961              		.cfi_offset 4, -20
 962              		.cfi_offset 5, -16
 963              		.cfi_offset 6, -12
 964              		.cfi_offset 7, -8
 965              		.cfi_offset 14, -4
 966 0002 CF4C     		ldr	r4, .L37
 967 0004 A544     		add	sp, sp, r4
 968              		.cfi_def_cfa_offset 544
 969 0006 04AF     		add	r7, sp, #16
 970              		.cfi_def_cfa 7, 528
 203:../Sources/main.c **** 	rtc_datetime_t date, date_begin;
 204:../Sources/main.c **** 	int tpmMod;
 205:../Sources/main.c **** 	tpmMod = TPM_MAX_MOD/2;
 971              		.loc 1 205 0
 972 0008 8023     		mov	r3, #128
 973 000a 1B02     		lsl	r3, r3, #8
 974 000c F820     		mov	r0, #248
 975 000e 4000     		lsl	r0, r0, #1
 976 0010 C019     		add	r0, r0, r7
 977 0012 0360     		str	r3, [r0]
 206:../Sources/main.c **** 	LED1_EN;
 978              		.loc 1 206 0
 979 0014 CB4B     		ldr	r3, .L37+4
 980 0016 181C     		mov	r0, r3
 981 0018 FFF7FEFF 		bl	GPIO_DRV_OutputPinInit
 207:../Sources/main.c **** 	LED2_EN;
 982              		.loc 1 207 0
 983 001c CA4B     		ldr	r3, .L37+8
 984 001e 181C     		mov	r0, r3
 985 0020 FFF7FEFF 		bl	GPIO_DRV_OutputPinInit
 208:../Sources/main.c **** 	LED2_ON;
 986              		.loc 1 208 0
 987 0024 C74B     		ldr	r3, .L37+4
 988 0026 DB68     		ldr	r3, [r3, #12]
 989 0028 181C     		mov	r0, r3
 990 002a 0021     		mov	r1, #0
 991 002c FFF7FEFF 		bl	GPIO_DRV_WritePinOutput
 209:../Sources/main.c **** 	init_board(tpmMod);
 992              		.loc 1 209 0
 993 0030 F821     		mov	r1, #248
 994 0032 4900     		lsl	r1, r1, #1
 995 0034 C919     		add	r1, r1, r7
 996 0036 0B68     		ldr	r3, [r1]
 997 0038 181C     		mov	r0, r3
 998 003a FFF7FEFF 		bl	init_board
 210:../Sources/main.c ****     // Init RTC
 211:../Sources/main.c ****     RTC_DRV_Init(RTC_INSTANCE);
 999              		.loc 1 211 0
 1000 003e 0020     		mov	r0, #0
 1001 0040 FFF7FEFF 		bl	RTC_DRV_Init
 212:../Sources/main.c ****     // Set a start date time and start RT.
 213:../Sources/main.c ****     date.year   = 2016U;
 1002              		.loc 1 213 0
 1003 0044 EE22     		mov	r2, #238
 1004 0046 5200     		lsl	r2, r2, #1
 1005 0048 BB18     		add	r3, r7, r2
 1006 004a FC22     		mov	r2, #252
 1007 004c D200     		lsl	r2, r2, #3
 1008 004e 1A80     		strh	r2, [r3]
 214:../Sources/main.c ****     date.month  = 7U;
 1009              		.loc 1 214 0
 1010 0050 EE24     		mov	r4, #238
 1011 0052 6400     		lsl	r4, r4, #1
 1012 0054 3B19     		add	r3, r7, r4
 1013 0056 0722     		mov	r2, #7
 1014 0058 5A80     		strh	r2, [r3, #2]
 215:../Sources/main.c ****     date.day    = 31U;
 1015              		.loc 1 215 0
 1016 005a EE20     		mov	r0, #238
 1017 005c 4000     		lsl	r0, r0, #1
 1018 005e 3B18     		add	r3, r7, r0
 1019 0060 1F22     		mov	r2, #31
 1020 0062 9A80     		strh	r2, [r3, #4]
 216:../Sources/main.c ****     date.hour   = 16U;
 1021              		.loc 1 216 0
 1022 0064 EE21     		mov	r1, #238
 1023 0066 4900     		lsl	r1, r1, #1
 1024 0068 7B18     		add	r3, r7, r1
 1025 006a 1022     		mov	r2, #16
 1026 006c DA80     		strh	r2, [r3, #6]
 217:../Sources/main.c ****     date.minute = 20U;
 1027              		.loc 1 217 0
 1028 006e EE22     		mov	r2, #238
 1029 0070 5200     		lsl	r2, r2, #1
 1030 0072 BB18     		add	r3, r7, r2
 1031 0074 1422     		mov	r2, #20
 1032 0076 1A81     		strh	r2, [r3, #8]
 218:../Sources/main.c ****     date.second = 0U;
 1033              		.loc 1 218 0
 1034 0078 EE24     		mov	r4, #238
 1035 007a 6400     		lsl	r4, r4, #1
 1036 007c 3B19     		add	r3, r7, r4
 1037 007e 0022     		mov	r2, #0
 1038 0080 9A72     		strb	r2, [r3, #10]
 219:../Sources/main.c ****     date_begin = date;
 1039              		.loc 1 219 0
 1040 0082 E820     		mov	r0, #232
 1041 0084 4000     		lsl	r0, r0, #1
 1042 0086 3B18     		add	r3, r7, r0
 1043 0088 EE21     		mov	r1, #238
 1044 008a 4900     		lsl	r1, r1, #1
 1045 008c 7A18     		add	r2, r7, r1
 1046 008e 13CA     		ldmia	r2!, {r0, r1, r4}
 1047 0090 13C3     		stmia	r3!, {r0, r1, r4}
 220:../Sources/main.c **** 	TPM_DRV_CounterStart (BOARD_TPM_INSTANCE, kTpmCountingUp, tpmMod, 1);
 1048              		.loc 1 220 0
 1049 0092 F822     		mov	r2, #248
 1050 0094 5200     		lsl	r2, r2, #1
 1051 0096 D219     		add	r2, r2, r7
 1052 0098 1368     		ldr	r3, [r2]
 1053 009a 0020     		mov	r0, #0
 1054 009c 0021     		mov	r1, #0
 1055 009e 1A1C     		mov	r2, r3
 1056 00a0 0123     		mov	r3, #1
 1057 00a2 FFF7FEFF 		bl	TPM_DRV_CounterStart
 221:../Sources/main.c **** 
 222:../Sources/main.c **** 	// Inicio benchmark
 223:../Sources/main.c ****     char *here;
 224:../Sources/main.c ****     char *find_strings[] = {"abb",  "you", "not", "it", "dad", "yoo", "hoo",
 1058              		.loc 1 224 0
 1059 00a6 A94B     		ldr	r3, .L37+12
 1060 00a8 FC24     		mov	r4, #252
 1061 00aa 6400     		lsl	r4, r4, #1
 1062 00ac E419     		add	r4, r4, r7
 1063 00ae E218     		add	r2, r4, r3
 1064 00b0 A74B     		ldr	r3, .L37+16
 1065 00b2 111C     		mov	r1, r2
 1066 00b4 1A1C     		mov	r2, r3
 1067 00b6 E823     		mov	r3, #232
 1068 00b8 081C     		mov	r0, r1
 1069 00ba 111C     		mov	r1, r2
 1070 00bc 1A1C     		mov	r2, r3
 1071 00be FFF7FEFF 		bl	memcpy
 225:../Sources/main.c ****                             "oo", "oh", "xx", "xx", "x", "x", "field", "new", "row",
 226:../Sources/main.c **** 			      "regime", "boom", "that", "impact", "and", "zoom", "texture",
 227:../Sources/main.c **** 			      "magnet", "doom", "loom", "freq", "current", "phase",
 228:../Sources/main.c **** 			      "images",
 229:../Sources/main.c **** 			      "appears", "phase", "conductor", "wavez",
 230:../Sources/main.c **** 			      "normal", "free", "termed",
 231:../Sources/main.c **** 			      "provide", "for", "and", "struct", "about", "have",
 232:../Sources/main.c **** 			      "proper",
 233:../Sources/main.c **** 			      "involve",
 234:../Sources/main.c **** 			      "describedly",
 235:../Sources/main.c **** 			      "thats",
 236:../Sources/main.c **** 			      "spaces",
 237:../Sources/main.c **** 			      "circumstance",
 238:../Sources/main.c **** 			      "the",
 239:../Sources/main.c **** 			      "member",
 240:../Sources/main.c **** 			      "such",
 241:../Sources/main.c **** 			      "guide",
 242:../Sources/main.c **** 			      "regard",
 243:../Sources/main.c **** 			      "officers",
 244:../Sources/main.c **** 			      "implement",
 245:../Sources/main.c **** 			      "principalities",
 246:../Sources/main.c **** 			      NULL};
 247:../Sources/main.c ****     char *search_strings[] = {"cabbie", "your", "It isn't here",
 1072              		.loc 1 247 0
 1073 00c2 A44B     		ldr	r3, .L37+20
 1074 00c4 FC20     		mov	r0, #252
 1075 00c6 4000     		lsl	r0, r0, #1
 1076 00c8 C019     		add	r0, r0, r7
 1077 00ca C218     		add	r2, r0, r3
 1078 00cc A24B     		ldr	r3, .L37+24
 1079 00ce 111C     		mov	r1, r2
 1080 00d0 1A1C     		mov	r2, r3
 1081 00d2 E423     		mov	r3, #228
 1082 00d4 081C     		mov	r0, r1
 1083 00d6 111C     		mov	r1, r2
 1084 00d8 1A1C     		mov	r2, r3
 1085 00da FFF7FEFF 		bl	memcpy
 248:../Sources/main.c ****                               "But it is here", "hodad", "yoohoo", "yoohoo",
 249:../Sources/main.c ****                               "yoohoo", "yoohoo", "yoohoo", "xx", "x", ".",
 250:../Sources/main.c **** 				"In recent years, the field of photonic ",
 251:../Sources/main.c **** 				"crystals has found new",
 252:../Sources/main.c **** 				"applications in the RF and microwave",
 253:../Sources/main.c **** 				"regime. A new type of metallic",
 254:../Sources/main.c **** 				"electromagnetic crystal has been",
 255:../Sources/main.c **** 				"developed that is having a",
 256:../Sources/main.c **** 				"significant impact on the field of",
 257:../Sources/main.c **** 				"antennas. It consists of a",
 258:../Sources/main.c **** 				"conductive surface, covered with a",
 259:../Sources/main.c **** 				"special texture which alters its",
 260:../Sources/main.c **** 				"electromagnetic properties. Made of solid",
 261:../Sources/main.c **** 				"metal, the structure",
 262:../Sources/main.c **** 				"conducts DC currents, but over a",
 263:../Sources/main.c **** 				"particular frequency range it does",
 264:../Sources/main.c **** 				"not conduct AC currents. It does not",
 265:../Sources/main.c **** 				"reverse the phase of reflected",
 266:../Sources/main.c **** 				"waves, and the effective image currents",
 267:../Sources/main.c **** 
 268:../Sources/main.c **** 				"appear in-phase, rather than",
 269:../Sources/main.c **** 				"out-of-phase as they are on normal",
 270:../Sources/main.c **** 				"conductors. Furthermore, surface",
 271:../Sources/main.c **** 				"waves do not propagate, and instead",
 272:../Sources/main.c **** 				"radiate efficiently into free",
 273:../Sources/main.c **** 				"space. This new material, termed a",
 274:../Sources/main.c **** 				"high-impedance surface, provides",
 275:../Sources/main.c **** 				"a useful new ground plane for novel",
 276:../Sources/main.c **** 				"low-profile antennas and other",
 277:../Sources/main.c **** 				"electromagnetic structures.",
 278:../Sources/main.c **** 				"The recent protests about the Michigamua",
 279:../Sources/main.c **** 				"student organization have raised an",
 280:../Sources/main.c **** 				"important question as to the proper nature",
 281:../Sources/main.c **** 				"and scope of University involvement",
 282:../Sources/main.c **** 				"with student organizations. Accordingly",
 283:../Sources/main.c **** 				"the panel described in my Statement of",
 284:../Sources/main.c **** 				"February 25, 2000 that is considering the",
 285:../Sources/main.c **** 				"question of privileged space also will",
 286:../Sources/main.c **** 				"consider under what circumstances and in",
 287:../Sources/main.c **** 				"what ways the University, its",
 288:../Sources/main.c **** 				"administrators and faculty members should",
 289:../Sources/main.c **** 				"be associated with such organizations",
 290:../Sources/main.c **** 				"and it will recommend guiding principles",
 291:../Sources/main.c **** 				"in this regard. The University's",
 292:../Sources/main.c **** 				"Executive Officers and I will then decide",
 293:../Sources/main.c **** 				"whether and how to implement such",
 294:../Sources/main.c **** 				"principles."
 295:../Sources/main.c **** };
 296:../Sources/main.c ****     int i;
 297:../Sources/main.c **** 
 298:../Sources/main.c ****     for (i = 0; find_strings[i]; i++)
 1086              		.loc 1 298 0
 1087 00de 0023     		mov	r3, #0
 1088 00e0 FA21     		mov	r1, #250
 1089 00e2 4900     		lsl	r1, r1, #1
 1090 00e4 C919     		add	r1, r1, r7
 1091 00e6 0B60     		str	r3, [r1]
 1092 00e8 5EE0     		b	.L31
 1093              	.L35:
 299:../Sources/main.c ****     {
 300:../Sources/main.c ****           init_search(find_strings[i]);
 1094              		.loc 1 300 0
 1095 00ea 984B     		ldr	r3, .L37+12
 1096 00ec FC22     		mov	r2, #252
 1097 00ee 5200     		lsl	r2, r2, #1
 1098 00f0 D219     		add	r2, r2, r7
 1099 00f2 D318     		add	r3, r2, r3
 1100 00f4 FA24     		mov	r4, #250
 1101 00f6 6400     		lsl	r4, r4, #1
 1102 00f8 E419     		add	r4, r4, r7
 1103 00fa 2268     		ldr	r2, [r4]
 1104 00fc 9200     		lsl	r2, r2, #2
 1105 00fe D358     		ldr	r3, [r2, r3]
 1106 0100 181C     		mov	r0, r3
 1107 0102 FFF7FEFF 		bl	init_search
 301:../Sources/main.c ****           here = strsearch(search_strings[i]);
 1108              		.loc 1 301 0
 1109 0106 934B     		ldr	r3, .L37+20
 1110 0108 FC20     		mov	r0, #252
 1111 010a 4000     		lsl	r0, r0, #1
 1112 010c C019     		add	r0, r0, r7
 1113 010e C318     		add	r3, r0, r3
 1114 0110 FA21     		mov	r1, #250
 1115 0112 4900     		lsl	r1, r1, #1
 1116 0114 C919     		add	r1, r1, r7
 1117 0116 0A68     		ldr	r2, [r1]
 1118 0118 9200     		lsl	r2, r2, #2
 1119 011a D358     		ldr	r3, [r2, r3]
 1120 011c 181C     		mov	r0, r3
 1121 011e FFF7FEFF 		bl	strsearch
 1122 0122 031C     		mov	r3, r0
 1123 0124 F622     		mov	r2, #246
 1124 0126 5200     		lsl	r2, r2, #1
 1125 0128 D219     		add	r2, r2, r7
 1126 012a 1360     		str	r3, [r2]
 302:../Sources/main.c ****           printf("\"%s\" is%s in \"%s\"", find_strings[i],
 1127              		.loc 1 302 0
 1128 012c 874B     		ldr	r3, .L37+12
 1129 012e FC24     		mov	r4, #252
 1130 0130 6400     		lsl	r4, r4, #1
 1131 0132 E419     		add	r4, r4, r7
 1132 0134 E318     		add	r3, r4, r3
 1133 0136 FA20     		mov	r0, #250
 1134 0138 4000     		lsl	r0, r0, #1
 1135 013a C019     		add	r0, r0, r7
 1136 013c 0268     		ldr	r2, [r0]
 1137 013e 9200     		lsl	r2, r2, #2
 1138 0140 D258     		ldr	r2, [r2, r3]
 1139 0142 F621     		mov	r1, #246
 1140 0144 4900     		lsl	r1, r1, #1
 1141 0146 C919     		add	r1, r1, r7
 1142 0148 0B68     		ldr	r3, [r1]
 1143 014a 002B     		cmp	r3, #0
 1144 014c 01D0     		beq	.L32
 1145              		.loc 1 302 0 is_stmt 0 discriminator 1
 1146 014e 834B     		ldr	r3, .L37+28
 1147 0150 00E0     		b	.L33
 1148              	.L32:
 1149              		.loc 1 302 0 discriminator 2
 1150 0152 834B     		ldr	r3, .L37+32
 1151              	.L33:
 1152              		.loc 1 302 0 discriminator 3
 1153 0154 7F49     		ldr	r1, .L37+20
 1154 0156 FC24     		mov	r4, #252
 1155 0158 6400     		lsl	r4, r4, #1
 1156 015a E419     		add	r4, r4, r7
 1157 015c 6118     		add	r1, r4, r1
 1158 015e FA24     		mov	r4, #250
 1159 0160 6400     		lsl	r4, r4, #1
 1160 0162 E419     		add	r4, r4, r7
 1161 0164 2068     		ldr	r0, [r4]
 1162 0166 8000     		lsl	r0, r0, #2
 1163 0168 4458     		ldr	r4, [r0, r1]
 1164 016a 7E49     		ldr	r1, .L37+36
 1165 016c 081C     		mov	r0, r1
 1166 016e 111C     		mov	r1, r2
 1167 0170 1A1C     		mov	r2, r3
 1168 0172 231C     		mov	r3, r4
 1169 0174 FFF7FEFF 		bl	printf
 303:../Sources/main.c ****                 here ? "" : " not", search_strings[i]);
 304:../Sources/main.c ****           if (here)
 1170              		.loc 1 304 0 is_stmt 1 discriminator 3
 1171 0178 F620     		mov	r0, #246
 1172 017a 4000     		lsl	r0, r0, #1
 1173 017c C019     		add	r0, r0, r7
 1174 017e 0368     		ldr	r3, [r0]
 1175 0180 002B     		cmp	r3, #0
 1176 0182 08D0     		beq	.L34
 305:../Sources/main.c ****                 printf(" [\"%s\"]\n", here);
 1177              		.loc 1 305 0
 1178 0184 784A     		ldr	r2, .L37+40
 1179 0186 F621     		mov	r1, #246
 1180 0188 4900     		lsl	r1, r1, #1
 1181 018a C919     		add	r1, r1, r7
 1182 018c 0B68     		ldr	r3, [r1]
 1183 018e 101C     		mov	r0, r2
 1184 0190 191C     		mov	r1, r3
 1185 0192 FFF7FEFF 		bl	printf
 1186              	.L34:
 298:../Sources/main.c ****     for (i = 0; find_strings[i]; i++)
 1187              		.loc 1 298 0
 1188 0196 FA22     		mov	r2, #250
 1189 0198 5200     		lsl	r2, r2, #1
 1190 019a D219     		add	r2, r2, r7
 1191 019c 1368     		ldr	r3, [r2]
 1192 019e 0133     		add	r3, r3, #1
 1193 01a0 FA24     		mov	r4, #250
 1194 01a2 6400     		lsl	r4, r4, #1
 1195 01a4 E419     		add	r4, r4, r7
 1196 01a6 2360     		str	r3, [r4]
 1197              	.L31:
 298:../Sources/main.c ****     for (i = 0; find_strings[i]; i++)
 1198              		.loc 1 298 0 is_stmt 0 discriminator 1
 1199 01a8 684B     		ldr	r3, .L37+12
 1200 01aa FC20     		mov	r0, #252
 1201 01ac 4000     		lsl	r0, r0, #1
 1202 01ae C019     		add	r0, r0, r7
 1203 01b0 C318     		add	r3, r0, r3
 1204 01b2 FA21     		mov	r1, #250
 1205 01b4 4900     		lsl	r1, r1, #1
 1206 01b6 C919     		add	r1, r1, r7
 1207 01b8 0A68     		ldr	r2, [r1]
 1208 01ba 9200     		lsl	r2, r2, #2
 1209 01bc D358     		ldr	r3, [r2, r3]
 1210 01be 002B     		cmp	r3, #0
 1211 01c0 93D1     		bne	.L35
 306:../Sources/main.c ****           //putchar('\n');
 307:../Sources/main.c ****     }
 308:../Sources/main.c **** 	//Benchmark fim
 309:../Sources/main.c **** 
 310:../Sources/main.c ****     LED2_OFF;
 1212              		.loc 1 310 0 is_stmt 1
 1213 01c2 604B     		ldr	r3, .L37+4
 1214 01c4 DB68     		ldr	r3, [r3, #12]
 1215 01c6 181C     		mov	r0, r3
 1216 01c8 0121     		mov	r1, #1
 1217 01ca FFF7FEFF 		bl	GPIO_DRV_WritePinOutput
 311:../Sources/main.c ****     LED1_ON;
 1218              		.loc 1 311 0
 1219 01ce 5D4B     		ldr	r3, .L37+4
 1220 01d0 1B68     		ldr	r3, [r3]
 1221 01d2 181C     		mov	r0, r3
 1222 01d4 0021     		mov	r1, #0
 1223 01d6 FFF7FEFF 		bl	GPIO_DRV_WritePinOutput
 312:../Sources/main.c ****     int OFMedido = OF_COUNT;
 1224              		.loc 1 312 0
 1225 01da 644B     		ldr	r3, .L37+44
 1226 01dc 1B68     		ldr	r3, [r3]
 1227 01de F422     		mov	r2, #244
 1228 01e0 5200     		lsl	r2, r2, #1
 1229 01e2 D219     		add	r2, r2, r7
 1230 01e4 1360     		str	r3, [r2]
 313:../Sources/main.c ****     printf("Overflows: %d \r\n", OF_COUNT);
 1231              		.loc 1 313 0
 1232 01e6 614B     		ldr	r3, .L37+44
 1233 01e8 1B68     		ldr	r3, [r3]
 1234 01ea 614A     		ldr	r2, .L37+48
 1235 01ec 101C     		mov	r0, r2
 1236 01ee 191C     		mov	r1, r3
 1237 01f0 FFF7FEFF 		bl	printf
 314:../Sources/main.c ****         RTC_DRV_GetDatetime(RTC_INSTANCE, &date);
 1238              		.loc 1 314 0
 1239 01f4 EE24     		mov	r4, #238
 1240 01f6 6400     		lsl	r4, r4, #1
 1241 01f8 3B19     		add	r3, r7, r4
 1242 01fa 0020     		mov	r0, #0
 1243 01fc 191C     		mov	r1, r3
 1244 01fe FFF7FEFF 		bl	RTC_DRV_GetDatetime
 315:../Sources/main.c ****         PRINTF("Current datetime: %04hd-%02hd-%02hd %02hd:%02hd:%02hd\r\n",
 316:../Sources/main.c ****                 		date.year, date.month, date.day, date.hour, date.minute, date.second);
 1245              		.loc 1 316 0
 1246 0202 EE20     		mov	r0, #238
 1247 0204 4000     		lsl	r0, r0, #1
 1248 0206 3B18     		add	r3, r7, r0
 1249 0208 1B88     		ldrh	r3, [r3]
 315:../Sources/main.c ****         PRINTF("Current datetime: %04hd-%02hd-%02hd %02hd:%02hd:%02hd\r\n",
 1250              		.loc 1 315 0
 1251 020a 191C     		mov	r1, r3
 1252              		.loc 1 316 0
 1253 020c EE22     		mov	r2, #238
 1254 020e 5200     		lsl	r2, r2, #1
 1255 0210 BB18     		add	r3, r7, r2
 1256 0212 5B88     		ldrh	r3, [r3, #2]
 315:../Sources/main.c ****         PRINTF("Current datetime: %04hd-%02hd-%02hd %02hd:%02hd:%02hd\r\n",
 1257              		.loc 1 315 0
 1258 0214 1A1C     		mov	r2, r3
 1259              		.loc 1 316 0
 1260 0216 EE24     		mov	r4, #238
 1261 0218 6400     		lsl	r4, r4, #1
 1262 021a 3B19     		add	r3, r7, r4
 1263 021c 9B88     		ldrh	r3, [r3, #4]
 1264 021e EE24     		mov	r4, #238
 1265 0220 6400     		lsl	r4, r4, #1
 1266 0222 3819     		add	r0, r7, r4
 1267 0224 C088     		ldrh	r0, [r0, #6]
 315:../Sources/main.c ****         PRINTF("Current datetime: %04hd-%02hd-%02hd %02hd:%02hd:%02hd\r\n",
 1268              		.loc 1 315 0
 1269 0226 061C     		mov	r6, r0
 1270              		.loc 1 316 0
 1271 0228 EE24     		mov	r4, #238
 1272 022a 6400     		lsl	r4, r4, #1
 1273 022c 3819     		add	r0, r7, r4
 1274 022e 0089     		ldrh	r0, [r0, #8]
 315:../Sources/main.c ****         PRINTF("Current datetime: %04hd-%02hd-%02hd %02hd:%02hd:%02hd\r\n",
 1275              		.loc 1 315 0
 1276 0230 051C     		mov	r5, r0
 1277              		.loc 1 316 0
 1278 0232 EE24     		mov	r4, #238
 1279 0234 6400     		lsl	r4, r4, #1
 1280 0236 3819     		add	r0, r7, r4
 1281 0238 807A     		ldrb	r0, [r0, #10]
 315:../Sources/main.c ****         PRINTF("Current datetime: %04hd-%02hd-%02hd %02hd:%02hd:%02hd\r\n",
 1282              		.loc 1 315 0
 1283 023a 041C     		mov	r4, r0
 1284 023c 4D48     		ldr	r0, .L37+52
 1285 023e 0096     		str	r6, [sp]
 1286 0240 0195     		str	r5, [sp, #4]
 1287 0242 0294     		str	r4, [sp, #8]
 1288 0244 FFF7FEFF 		bl	debug_printf
 317:../Sources/main.c ****         date_begin.year =  date.year - date_begin.year;
 1289              		.loc 1 317 0
 1290 0248 EE20     		mov	r0, #238
 1291 024a 4000     		lsl	r0, r0, #1
 1292 024c 3B18     		add	r3, r7, r0
 1293 024e 1A88     		ldrh	r2, [r3]
 1294 0250 E821     		mov	r1, #232
 1295 0252 4900     		lsl	r1, r1, #1
 1296 0254 7B18     		add	r3, r7, r1
 1297 0256 1B88     		ldrh	r3, [r3]
 1298 0258 D31A     		sub	r3, r2, r3
 1299 025a 9AB2     		uxth	r2, r3
 1300 025c E824     		mov	r4, #232
 1301 025e 6400     		lsl	r4, r4, #1
 1302 0260 3B19     		add	r3, r7, r4
 1303 0262 1A80     		strh	r2, [r3]
 318:../Sources/main.c ****         date_begin.month =  date.month - date_begin.month;
 1304              		.loc 1 318 0
 1305 0264 EE20     		mov	r0, #238
 1306 0266 4000     		lsl	r0, r0, #1
 1307 0268 3B18     		add	r3, r7, r0
 1308 026a 5A88     		ldrh	r2, [r3, #2]
 1309 026c E821     		mov	r1, #232
 1310 026e 4900     		lsl	r1, r1, #1
 1311 0270 7B18     		add	r3, r7, r1
 1312 0272 5B88     		ldrh	r3, [r3, #2]
 1313 0274 D31A     		sub	r3, r2, r3
 1314 0276 9AB2     		uxth	r2, r3
 1315 0278 E824     		mov	r4, #232
 1316 027a 6400     		lsl	r4, r4, #1
 1317 027c 3B19     		add	r3, r7, r4
 1318 027e 5A80     		strh	r2, [r3, #2]
 319:../Sources/main.c ****         date_begin.day =  date.day - date_begin.day;
 1319              		.loc 1 319 0
 1320 0280 EE20     		mov	r0, #238
 1321 0282 4000     		lsl	r0, r0, #1
 1322 0284 3B18     		add	r3, r7, r0
 1323 0286 9A88     		ldrh	r2, [r3, #4]
 1324 0288 E821     		mov	r1, #232
 1325 028a 4900     		lsl	r1, r1, #1
 1326 028c 7B18     		add	r3, r7, r1
 1327 028e 9B88     		ldrh	r3, [r3, #4]
 1328 0290 D31A     		sub	r3, r2, r3
 1329 0292 9AB2     		uxth	r2, r3
 1330 0294 E824     		mov	r4, #232
 1331 0296 6400     		lsl	r4, r4, #1
 1332 0298 3B19     		add	r3, r7, r4
 1333 029a 9A80     		strh	r2, [r3, #4]
 320:../Sources/main.c ****         date_begin.hour =  date.hour - date_begin.hour;
 1334              		.loc 1 320 0
 1335 029c EE20     		mov	r0, #238
 1336 029e 4000     		lsl	r0, r0, #1
 1337 02a0 3B18     		add	r3, r7, r0
 1338 02a2 DA88     		ldrh	r2, [r3, #6]
 1339 02a4 E821     		mov	r1, #232
 1340 02a6 4900     		lsl	r1, r1, #1
 1341 02a8 7B18     		add	r3, r7, r1
 1342 02aa DB88     		ldrh	r3, [r3, #6]
 1343 02ac D31A     		sub	r3, r2, r3
 1344 02ae 9AB2     		uxth	r2, r3
 1345 02b0 E824     		mov	r4, #232
 1346 02b2 6400     		lsl	r4, r4, #1
 1347 02b4 3B19     		add	r3, r7, r4
 1348 02b6 DA80     		strh	r2, [r3, #6]
 321:../Sources/main.c ****         date_begin.minute =  date.minute - date_begin.minute;
 1349              		.loc 1 321 0
 1350 02b8 EE20     		mov	r0, #238
 1351 02ba 4000     		lsl	r0, r0, #1
 1352 02bc 3B18     		add	r3, r7, r0
 1353 02be 1A89     		ldrh	r2, [r3, #8]
 1354 02c0 E821     		mov	r1, #232
 1355 02c2 4900     		lsl	r1, r1, #1
 1356 02c4 7B18     		add	r3, r7, r1
 1357 02c6 1B89     		ldrh	r3, [r3, #8]
 1358 02c8 D31A     		sub	r3, r2, r3
 1359 02ca 9AB2     		uxth	r2, r3
 1360 02cc E824     		mov	r4, #232
 1361 02ce 6400     		lsl	r4, r4, #1
 1362 02d0 3B19     		add	r3, r7, r4
 1363 02d2 1A81     		strh	r2, [r3, #8]
 322:../Sources/main.c ****         date_begin.second =  date.second - date_begin.second;
 1364              		.loc 1 322 0
 1365 02d4 EE20     		mov	r0, #238
 1366 02d6 4000     		lsl	r0, r0, #1
 1367 02d8 3B18     		add	r3, r7, r0
 1368 02da 9A7A     		ldrb	r2, [r3, #10]
 1369 02dc E821     		mov	r1, #232
 1370 02de 4900     		lsl	r1, r1, #1
 1371 02e0 7B18     		add	r3, r7, r1
 1372 02e2 9B7A     		ldrb	r3, [r3, #10]
 1373 02e4 D31A     		sub	r3, r2, r3
 1374 02e6 DAB2     		uxtb	r2, r3
 1375 02e8 E824     		mov	r4, #232
 1376 02ea 6400     		lsl	r4, r4, #1
 1377 02ec 3B19     		add	r3, r7, r4
 1378 02ee 9A72     		strb	r2, [r3, #10]
 323:../Sources/main.c **** 
 324:../Sources/main.c ****         PRINTF("Current datetime: %04hd-%02hd-%02hd %02hd:%02hd:%02hd\r\n",
 325:../Sources/main.c ****         		date_begin.year, date_begin.month, date_begin.day, date_begin.hour, date_begin.minute, da
 1379              		.loc 1 325 0
 1380 02f0 E820     		mov	r0, #232
 1381 02f2 4000     		lsl	r0, r0, #1
 1382 02f4 3B18     		add	r3, r7, r0
 1383 02f6 1B88     		ldrh	r3, [r3]
 324:../Sources/main.c ****         PRINTF("Current datetime: %04hd-%02hd-%02hd %02hd:%02hd:%02hd\r\n",
 1384              		.loc 1 324 0
 1385 02f8 191C     		mov	r1, r3
 1386              		.loc 1 325 0
 1387 02fa E822     		mov	r2, #232
 1388 02fc 5200     		lsl	r2, r2, #1
 1389 02fe BB18     		add	r3, r7, r2
 1390 0300 5B88     		ldrh	r3, [r3, #2]
 324:../Sources/main.c ****         PRINTF("Current datetime: %04hd-%02hd-%02hd %02hd:%02hd:%02hd\r\n",
 1391              		.loc 1 324 0
 1392 0302 1A1C     		mov	r2, r3
 1393              		.loc 1 325 0
 1394 0304 E824     		mov	r4, #232
 1395 0306 6400     		lsl	r4, r4, #1
 1396 0308 3B19     		add	r3, r7, r4
 1397 030a 9B88     		ldrh	r3, [r3, #4]
 1398 030c E824     		mov	r4, #232
 1399 030e 6400     		lsl	r4, r4, #1
 1400 0310 3819     		add	r0, r7, r4
 1401 0312 C088     		ldrh	r0, [r0, #6]
 324:../Sources/main.c ****         PRINTF("Current datetime: %04hd-%02hd-%02hd %02hd:%02hd:%02hd\r\n",
 1402              		.loc 1 324 0
 1403 0314 061C     		mov	r6, r0
 1404              		.loc 1 325 0
 1405 0316 E824     		mov	r4, #232
 1406 0318 6400     		lsl	r4, r4, #1
 1407 031a 3819     		add	r0, r7, r4
 1408 031c 0089     		ldrh	r0, [r0, #8]
 324:../Sources/main.c ****         PRINTF("Current datetime: %04hd-%02hd-%02hd %02hd:%02hd:%02hd\r\n",
 1409              		.loc 1 324 0
 1410 031e 051C     		mov	r5, r0
 1411              		.loc 1 325 0
 1412 0320 E824     		mov	r4, #232
 1413 0322 6400     		lsl	r4, r4, #1
 1414 0324 3819     		add	r0, r7, r4
 1415 0326 807A     		ldrb	r0, [r0, #10]
 324:../Sources/main.c ****         PRINTF("Current datetime: %04hd-%02hd-%02hd %02hd:%02hd:%02hd\r\n",
 1416              		.loc 1 324 0
 1417 0328 041C     		mov	r4, r0
 1418 032a 1248     		ldr	r0, .L37+52
 1419 032c 0096     		str	r6, [sp]
 1420 032e 0195     		str	r5, [sp, #4]
 1421 0330 0294     		str	r4, [sp, #8]
 1422 0332 FFF7FEFF 		bl	debug_printf
 326:../Sources/main.c **** 
 327:../Sources/main.c ****     //Write results to LCD
 328:../Sources/main.c ****     //writeOF(OFMedido);
 329:../Sources/main.c ****     return 0;
 1423              		.loc 1 329 0
 1424 0336 0023     		mov	r3, #0
 330:../Sources/main.c **** }
 1425              		.loc 1 330 0
 1426 0338 181C     		mov	r0, r3
 1427 033a BD46     		mov	sp, r7
 1428 033c 7FB0     		add	sp, sp, #508
 1429              		@ sp needed
 1430 033e F0BD     		pop	{r4, r5, r6, r7, pc}
 1431              	.L38:
 1432              		.align	2
 1433              	.L37:
 1434 0340 F4FDFFFF 		.word	-524
 1435 0344 00000000 		.word	ledPins
 1436 0348 0C000000 		.word	ledPins+12
 1437 034c F0FEFFFF 		.word	-272
 1438 0350 2C020000 		.word	.LC121
 1439 0354 0CFEFFFF 		.word	-500
 1440 0358 88090000 		.word	.LC123
 1441 035c 2C000000 		.word	.LC125
 1442 0360 30000000 		.word	.LC127
 1443 0364 38000000 		.word	.LC129
 1444 0368 4C000000 		.word	.LC131
 1445 036c 00000000 		.word	OF_COUNT
 1446 0370 58000000 		.word	.LC134
 1447 0374 6C000000 		.word	.LC136
 1448              		.cfi_endproc
 1449              	.LFE152:
 1451              		.text
 1452              	.Letext0:
 1453              		.file 2 "c:\\freescale\\kds_3.0.0\\toolchain\\lib\\gcc\\arm-none-eabi\\4.8.4\\include\\stddef.h"
 1454              		.file 3 "c:\\freescale\\kds_3.0.0\\toolchain\\arm-none-eabi\\include\\machine\\_default_types.h"
 1455              		.file 4 "c:\\freescale\\kds_3.0.0\\toolchain\\arm-none-eabi\\include\\stdint.h"
 1456              		.file 5 "../SDK/platform/devices/MKL25Z4/include/MKL25Z4.h"
 1457              		.file 6 "C:\\Freescale\\KSDK_1.2.0\\platform\\hal\\inc/fsl_tpm_hal.h"
 1458              		.file 7 "C:\\Freescale\\KSDK_1.2.0\\platform\\drivers\\inc/fsl_tpm_driver.h"
 1459              		.file 8 "C:\\Freescale\\KSDK_1.2.0\\platform\\hal\\inc/fsl_port_hal.h"
 1460              		.file 9 "C:\\Freescale\\KSDK_1.2.0\\platform\\drivers\\inc/fsl_gpio_driver.h"
 1461              		.file 10 "C:\\Freescale\\KSDK_1.2.0\\platform\\hal\\inc/fsl_rtc_hal.h"
 1462              		.file 11 "../Board/gpio_pins.h"
DEFINED SYMBOLS
                            *ABS*:00000000 main.c
C:\Users\Marcos\AppData\Local\Temp\ccoC2OkF.s:18     .bss.table:00000000 $d
C:\Users\Marcos\AppData\Local\Temp\ccoC2OkF.s:21     .bss.table:00000000 table
C:\Users\Marcos\AppData\Local\Temp\ccoC2OkF.s:24     .bss.len:00000000 $d
C:\Users\Marcos\AppData\Local\Temp\ccoC2OkF.s:27     .bss.len:00000000 len
C:\Users\Marcos\AppData\Local\Temp\ccoC2OkF.s:30     .bss.findme:00000000 $d
C:\Users\Marcos\AppData\Local\Temp\ccoC2OkF.s:33     .bss.findme:00000000 findme
C:\Users\Marcos\AppData\Local\Temp\ccoC2OkF.s:40     .bss.OF_COUNT:00000000 OF_COUNT
C:\Users\Marcos\AppData\Local\Temp\ccoC2OkF.s:37     .bss.OF_COUNT:00000000 $d
                            *COM*:00000004 TPM0Clock
                            *COM*:00000004 TPM1Clock
                            *COM*:00000004 CoreClock
C:\Users\Marcos\AppData\Local\Temp\ccoC2OkF.s:46     .text.RTC_IRQHandler:00000000 $t
C:\Users\Marcos\AppData\Local\Temp\ccoC2OkF.s:51     .text.RTC_IRQHandler:00000000 RTC_IRQHandler
C:\Users\Marcos\AppData\Local\Temp\ccoC2OkF.s:81     .text.TPM0_IRQHandler:00000000 $t
C:\Users\Marcos\AppData\Local\Temp\ccoC2OkF.s:86     .text.TPM0_IRQHandler:00000000 TPM0_IRQHandler
C:\Users\Marcos\AppData\Local\Temp\ccoC2OkF.s:123    .text.TPM0_IRQHandler:00000028 $d
C:\Users\Marcos\AppData\Local\Temp\ccoC2OkF.s:129    .rodata:00000000 $d
C:\Users\Marcos\AppData\Local\Temp\ccoC2OkF.s:136    .text.init_board:00000000 $t
C:\Users\Marcos\AppData\Local\Temp\ccoC2OkF.s:141    .text.init_board:00000000 init_board
C:\Users\Marcos\AppData\Local\Temp\ccoC2OkF.s:204    .text.init_board:00000064 $d
C:\Users\Marcos\AppData\Local\Temp\ccoC2OkF.s:214    .text.writeOF:00000000 $t
C:\Users\Marcos\AppData\Local\Temp\ccoC2OkF.s:219    .text.writeOF:00000000 writeOF
C:\Users\Marcos\AppData\Local\Temp\ccoC2OkF.s:292    .text.init_search:00000000 $t
C:\Users\Marcos\AppData\Local\Temp\ccoC2OkF.s:297    .text.init_search:00000000 init_search
C:\Users\Marcos\AppData\Local\Temp\ccoC2OkF.s:381    .text.init_search:00000074 $d
C:\Users\Marcos\AppData\Local\Temp\ccoC2OkF.s:388    .text.strsearch:00000000 $t
C:\Users\Marcos\AppData\Local\Temp\ccoC2OkF.s:393    .text.strsearch:00000000 strsearch
C:\Users\Marcos\AppData\Local\Temp\ccoC2OkF.s:492    .text.strsearch:0000007c $d
C:\Users\Marcos\AppData\Local\Temp\ccoC2OkF.s:950    .text.main:00000000 $t
C:\Users\Marcos\AppData\Local\Temp\ccoC2OkF.s:955    .text.main:00000000 main
C:\Users\Marcos\AppData\Local\Temp\ccoC2OkF.s:1434   .text.main:00000340 $d
                     .debug_frame:00000010 $d
                           .group:00000000 wm4.0.4fc5d43945da5e93c3e97df46ba359a3
                           .group:00000000 wm4.newlib.h.8.fec018e441fee7bfa1923812ad010f97
                           .group:00000000 wm4.features.h.22.6a4ca7cd053637cc1d0db6c16f39b2d7
                           .group:00000000 wm4.config.h.212.4163ef2871a828c674038d036b081cfd
                           .group:00000000 wm4._ansi.h.23.2147fde150631f5584b9dc29b914d1b8
                           .group:00000000 wm4.stdio.h.31.7c0e28c411445f3f9c5b11accf882760
                           .group:00000000 wm4.stddef.h.184.159df79b4ca79c76561572a55985524c
                           .group:00000000 wm4.stdarg.h.34.3a23a216c0c293b3d2ea2e89281481e6
                           .group:00000000 wm4.stddef.h.39.7e3d906ac58942e0b374c527445f5de5
                           .group:00000000 wm4._default_types.h.6.9e4229723f5523536bc8f574589d6a99
                           .group:00000000 wm4.lock.h.2.9bc98482741e5e2a9450b12934a684ea
                           .group:00000000 wm4._types.h.54.d3d34a3b7f3cc230cd159baf022b4b08
                           .group:00000000 wm4.stddef.h.158.61317cdbfb4026324507d123a50b0fd6
                           .group:00000000 wm4.reent.h.17.8bd9e4098e0428508c282cad794fae43
                           .group:00000000 wm4.types.h.23.0d949686bbcadd1621462d4fa1f884f9
                           .group:00000000 wm4.types.h.2.e9cec8c90ab35f77d9f499e06ae02400
                           .group:00000000 wm4.types.h.80.56707660962b21991903f1fee7c13bb3
                           .group:00000000 wm4.stdio.h.2.4aa87247282eca6c8f36f9de33d8df1a
                           .group:00000000 wm4.stdio.h.64.0f05fa42cfe2db7fc44729a52d3ba948
                           .group:00000000 wm4.stdlib.h.13.4ed386f5c1a80d71e72172885d946ef2
                           .group:00000000 wm4.stddef.h.158.a7efb00f6cbc6f43213b50e183c9830c
                           .group:00000000 wm4.alloca.h.8.dfc0c703c47ec3e69746825b17d9e66d
                           .group:00000000 wm4.stdlib.h.53.1a82a3cc35cb0a04319c41bcf41d2a02
                           .group:00000000 wm4.time.h.8.2930fe070f4a8096b07db9159698c8e3
                           .group:00000000 wm4.time.h.2.9857e62ad6ac99431e29d58067232314
                           .group:00000000 wm4.time.h.24.b2ed57ecf2f83bfb269ea55d03cd4600
                           .group:00000000 wm4.fsl_device_registers.h.48.205896530bddaf9f9434a0cf859f27ad
                           .group:00000000 wm4.MKL25Z4.h.102.677bea853bc8cd30d022809597055479
                           .group:00000000 wm4.stdint.h.10.d0f8e374834fcfc2e296d5d5fe82f02a
                           .group:00000000 wm4.MKL25Z4.h.115.225e141cc79b07c4f41c01e2aad8bacf
                           .group:00000000 wm4.core_cm0plus.h.43.8d0a7c3b62d57d3de08e0cf260e796f5
                           .group:00000000 wm4.core_cmInstr.h.39.44064da3259031fd67bf776bc901489f
                           .group:00000000 wm4.core_cm0plus.h.160.93109123d7400be81e9e38af2ec243d9
                           .group:00000000 wm4.system_MKL25Z4.h.100.c681798c181a50448d403503ea0d6dd3
                           .group:00000000 wm4.MKL25Z4.h.284.1401abca5d90bb44a7a363ddee2e0514
                           .group:00000000 wm4.fsl_bitaccess.h.73.fc2d25cf5a6762934410888f5d4104f9
                           .group:00000000 wm4.MKL25Z4_extension.h.123.8a6ecbe1f4aa9c3878ea5751dada233d
                           .group:00000000 wm4.MKL25Z4_features.h.77.f6e11aac8501a33d352798d42afc2cd7
                           .group:00000000 wm4.stdbool.h.29.1c9ee6859ce8145f7838a4f2549ccec2
                           .group:00000000 wm4.assert.h.11.ceb19edfe64b6745468752758bac670b
                           .group:00000000 wm4.fsl_gpio_driver.h.97.620958d6a07fb1b97029f9af8190c8ec
                           .group:00000000 wm4.board.h.39.c81a4861f8b68c771c14b32c0723e17e
                           .group:00000000 wm4.fsl_os_abstraction.h.31.f54ceefbdc41218fedfa18a8197b3cfd
                           .group:00000000 wm4.fsl_os_abstraction_bm.h.31.1c671ae1c13c02292f02d991770c98a4
                           .group:00000000 wm4.fsl_debug_console.h.45.d4345ba48ae4bd2acbbed6ab7133399e
                           .group:00000000 wm4.cdefs.h.56.a2d04de9d47039852021e66fca39bb58
                           .group:00000000 wm4.string.h.15.dab3980bf35408a4c507182805e2de3a
                           .group:00000000 wm4.string.h.126.6ff3aa59129e7f66b2c273baf353e066
                           .group:00000000 wm4.limits.h.2.9dea55bedb68394d9750fdf18fad85e9
                           .group:00000000 wm4.limits.h.60.b4bc9eda7e37043243f7148a2c6d0306
                           .group:00000000 wm4.lcd_hal.h.12.cee19ef5327b40ccab161a7c68516868

UNDEFINED SYMBOLS
RTC_DRV_IsAlarmPending
RTC_DRV_SetAlarmIntCmd
hardware_init
lcd_initLcd
puts
memset
TPM_DRV_Init
TPM_DRV_SetClock
TPM_DRV_GetClock
CLOCK_SYS_GetSystemClockFreq
__aeabi_idivmod
__aeabi_idiv
lcd_sendCommand
lcd_writeString
lcd_setCursor
strlen
strncmp
GPIO_DRV_OutputPinInit
GPIO_DRV_WritePinOutput
RTC_DRV_Init
TPM_DRV_CounterStart
memcpy
printf
RTC_DRV_GetDatetime
debug_printf
ledPins
