   1              		.cpu cortex-m0plus
   2              		.fpu softvfp
   3              		.eabi_attribute 20, 1
   4              		.eabi_attribute 21, 1
   5              		.eabi_attribute 23, 3
   6              		.eabi_attribute 24, 1
   7              		.eabi_attribute 25, 1
   8              		.eabi_attribute 26, 1
   9              		.eabi_attribute 30, 6
  10              		.eabi_attribute 34, 0
  11              		.eabi_attribute 18, 4
  12              		.code	16
  13              		.file	"gpio_pins.c"
  14              		.text
  15              	.Ltext0:
  16              		.cfi_sections	.debug_frame
  17              		.global	switchPins
  18              		.section	.data.switchPins,"aw",%progbits
  19              		.align	2
  22              	switchPins:
  23 0000 06030000 		.word	774
  24 0004 01       		.byte	1
  25 0005 00       		.byte	0
  26 0006 00       		.byte	0
  27 0007 00       		.space	1
  28 0008 FFFFFFFF 		.word	-1
  29 000c 00000000 		.space	4
  30              		.global	ledPins
  31              		.section	.data.ledPins,"aw",%progbits
  32              		.align	2
  35              	ledPins:
  36 0000 13010000 		.word	275
  37 0004 01000000 		.word	1
  38 0008 01       		.byte	1
  39 0009 00       		.byte	0
  40 000a 0000     		.space	2
  41 000c 12010000 		.word	274
  42 0010 01000000 		.word	1
  43 0014 01       		.byte	1
  44 0015 00       		.byte	0
  45 0016 0000     		.space	2
  46 0018 01030000 		.word	769
  47 001c 01000000 		.word	1
  48 0020 01       		.byte	1
  49 0021 00       		.byte	0
  50 0022 0000     		.space	2
  51 0024 FFFFFFFF 		.word	-1
  52 0028 00000000 		.space	8
  52      00000000 
  53              		.text
  54              	.Letext0:
  55              		.file 1 "c:\\freescale\\kds_3.0.0\\toolchain\\arm-none-eabi\\include\\machine\\_default_types.h"
  56              		.file 2 "c:\\freescale\\kds_3.0.0\\toolchain\\arm-none-eabi\\include\\stdint.h"
  57              		.file 3 "C:\\Freescale\\KSDK_1.2.0\\platform\\hal\\inc/fsl_port_hal.h"
  58              		.file 4 "C:\\Freescale\\KSDK_1.2.0\\platform\\drivers\\inc/fsl_gpio_driver.h"
  59              		.file 5 "../Board/gpio_pins.h"
  60              		.file 6 "../Board/gpio_pins.c"
DEFINED SYMBOLS
                            *ABS*:00000000 gpio_pins.c
C:\Users\Marcos\AppData\Local\Temp\ccxGcOnc.s:22     .data.switchPins:00000000 switchPins
C:\Users\Marcos\AppData\Local\Temp\ccxGcOnc.s:19     .data.switchPins:00000000 $d
C:\Users\Marcos\AppData\Local\Temp\ccxGcOnc.s:35     .data.ledPins:00000000 ledPins
C:\Users\Marcos\AppData\Local\Temp\ccxGcOnc.s:32     .data.ledPins:00000000 $d
                           .group:00000000 wm4.0.29490c0ea261f711663c3cb17a508067
                           .group:00000000 wm4.features.h.22.6a4ca7cd053637cc1d0db6c16f39b2d7
                           .group:00000000 wm4._default_types.h.15.8b2cb27e528498f8ff711db085d6e489
                           .group:00000000 wm4.stdint.h.20.796e373797e732130a803d4c0338fa1b
                           .group:00000000 wm4.newlib.h.8.fec018e441fee7bfa1923812ad010f97
                           .group:00000000 wm4.config.h.212.4163ef2871a828c674038d036b081cfd
                           .group:00000000 wm4._ansi.h.23.2147fde150631f5584b9dc29b914d1b8
                           .group:00000000 wm4.stdlib.h.13.4ed386f5c1a80d71e72172885d946ef2
                           .group:00000000 wm4.stddef.h.184.aa65fb7281d578229bbad41b91862635
                           .group:00000000 wm4.stddef.h.39.d0197034aa5fd947cae140b9289e6734
                           .group:00000000 wm4.lock.h.2.9bc98482741e5e2a9450b12934a684ea
                           .group:00000000 wm4._types.h.54.d3d34a3b7f3cc230cd159baf022b4b08
                           .group:00000000 wm4.stddef.h.158.61317cdbfb4026324507d123a50b0fd6
                           .group:00000000 wm4.reent.h.17.8bd9e4098e0428508c282cad794fae43
                           .group:00000000 wm4.alloca.h.8.dfc0c703c47ec3e69746825b17d9e66d
                           .group:00000000 wm4.stdlib.h.53.1a82a3cc35cb0a04319c41bcf41d2a02
                           .group:00000000 wm4.stdbool.h.29.1c9ee6859ce8145f7838a4f2549ccec2
                           .group:00000000 wm4.assert.h.11.7fe9eb241be6b0fee772a1e693b81ae3
                           .group:00000000 wm4.fsl_device_registers.h.48.205896530bddaf9f9434a0cf859f27ad
                           .group:00000000 wm4.MKL25Z4.h.102.e0f939bff553f65972f7f05b2a978168
                           .group:00000000 wm4.core_cm0plus.h.43.8d0a7c3b62d57d3de08e0cf260e796f5
                           .group:00000000 wm4.core_cmInstr.h.39.44064da3259031fd67bf776bc901489f
                           .group:00000000 wm4.core_cm0plus.h.160.93109123d7400be81e9e38af2ec243d9
                           .group:00000000 wm4.system_MKL25Z4.h.100.c681798c181a50448d403503ea0d6dd3
                           .group:00000000 wm4.MKL25Z4.h.284.1401abca5d90bb44a7a363ddee2e0514
                           .group:00000000 wm4.fsl_bitaccess.h.73.fc2d25cf5a6762934410888f5d4104f9
                           .group:00000000 wm4.MKL25Z4_extension.h.123.8a6ecbe1f4aa9c3878ea5751dada233d
                           .group:00000000 wm4.MKL25Z4_features.h.77.f6e11aac8501a33d352798d42afc2cd7
                           .group:00000000 wm4.assert.h.11.7043852a511d37ae606afa012e67e471
                           .group:00000000 wm4.fsl_gpio_driver.h.97.620958d6a07fb1b97029f9af8190c8ec

NO UNDEFINED SYMBOLS
